<?xml version="1.0" encoding="UTF-8" standalone="no"?>
<!-- Created with Inkscape (http://www.inkscape.org/) -->

<svg
   width="462.97476mm"
   height="163.35114mm"
   viewBox="0 0 462.97475 163.35109"
   version="1.1"
   id="svg5"
   sodipodi:docname="HELHa.svg"
   inkscape:version="1.1.2 (0a00cf5339, 2022-02-04, custom)"
   xmlns:inkscape="http://www.inkscape.org/namespaces/inkscape"
   xmlns:sodipodi="http://sodipodi.sourceforge.net/DTD/sodipodi-0.dtd"
   xmlns="http://www.w3.org/2000/svg"
   xmlns:svg="http://www.w3.org/2000/svg">
  <sodipodi:namedview
     id="namedview7"
     pagecolor="#ffffff"
     bordercolor="#999999"
     borderopacity="1"
     inkscape:pageshadow="0"
     inkscape:pageopacity="0"
     inkscape:pagecheckerboard="0"
     inkscape:document-units="mm"
     showgrid="false"
     fit-margin-top="0"
     fit-margin-left="0"
     fit-margin-right="0"
     fit-margin-bottom="0"
     inkscape:zoom="0.48996914"
     inkscape:cx="904.13858"
     inkscape:cy="144.90709"
     inkscape:window-width="1920"
     inkscape:window-height="1051"
     inkscape:window-x="1440"
     inkscape:window-y="0"
     inkscape:window-maximized="1"
     inkscape:current-layer="layer1" />
  <defs
     id="defs2" />
  <g
     inkscape:label="Layer 1"
     inkscape:groupmode="layer"
     id="layer1"
     transform="translate(339.0823,-118.41357)">
    <g
       id="g9480"
       transform="translate(54.003164,98.745727)">
      <path
         style="fill:#d0d2d5;stroke-width:0.264583"
         d="m -368.79158,182.76451 c -2.80874,-0.85438 -4.23705,-2.80245 -4.22581,-5.76356 0.007,-1.9296 0.67039,-3.42445 2.01054,-4.53273 1.35309,-1.11898 3.10861,-1.62879 6.25188,-1.81557 l 2.57969,-0.15329 v -0.60996 c 0,-1.32703 -0.62202,-3.39875 -1.1914,-3.96813 -1.40093,-1.40093 -4.21884,-1.3347 -6.56681,0.15434 l -1.19569,0.75828 -0.15326,-0.39939 c -0.0843,-0.21967 -0.15326,-0.80437 -0.15326,-1.29934 v -0.89994 l 1.38907,-0.70924 c 1.03748,-0.52972 1.90918,-0.74042 3.44401,-0.83245 3.24838,-0.19479 5.08651,0.77034 6.19466,3.25257 l 0.47248,1.05833 0.0914,7.87135 0.0914,7.87136 h -1.07903 -1.07903 v -1.01424 c 0,-0.55783 -0.0725,-1.08674 -0.16112,-1.17536 -0.0886,-0.0886 -0.58434,0.2499 -1.10159,0.75225 -1.39001,1.34996 -3.86002,1.98953 -5.61817,1.45472 z m 4.32951,-2.90441 c 1.38554,-0.85631 2.06219,-2.37149 2.22509,-4.9825 l 0.14123,-2.26385 -2.35487,0.18628 c -3.12,0.24681 -4.20771,0.59932 -5.1457,1.66763 l -0.78104,0.88956 v 1.51942 c 0,1.69936 0.3845,2.44416 1.68452,3.26301 l 0.82902,0.52218 1.27501,-0.13766 c 0.70126,-0.0757 1.65829,-0.37455 2.12674,-0.66407 z m 13.07096,2.79008 c -1.60551,-0.59725 -2.2202,-1.12375 -2.88257,-2.46901 l -0.62556,-1.27049 -0.0804,-8.00365 -0.0804,-8.00364 h 1.33722 1.33722 l 0.001,7.73906 10e-4,7.73906 0.51552,0.84549 c 0.62437,1.02399 2.13404,1.56057 3.61109,1.28347 1.28715,-0.24147 2.85845,-1.7857 3.24922,-3.19326 0.17745,-0.63918 0.29274,-3.67536 0.29363,-7.73309 l 10e-4,-6.68073 h 1.32292 1.32291 v 9.93709 9.93709 l -1.12448,-0.0814 -1.12447,-0.0814 -0.13406,-1.19063 -0.13406,-1.19062 -0.33383,0.58701 c -0.89446,1.57284 -4.45682,2.57969 -6.47326,1.82957 z m 17.63702,0.0925 c -0.4484,-0.13865 -1.02527,-0.48414 -1.28193,-0.76775 -1.05282,-1.16336 -1.18641,-2.24954 -1.19848,-9.74495 l -0.0116,-7.20989 h -1.45521 -1.45521 v -1.05834 -1.05833 h 1.44408 1.44408 l 0.0773,-2.02212 0.0773,-2.02211 1.11198,-0.32753 c 0.6116,-0.18015 1.17714,-0.26238 1.25678,-0.18275 0.0796,0.0796 0.14478,1.13697 0.14478,2.34965 v 2.20486 h 1.98438 1.98437 v 1.05833 1.05834 h -1.98437 -1.98438 v 7.27604 7.27604 l 0.56176,0.56176 0.56177,0.56177 1.42261,-0.1672 1.42261,-0.1672 v 1.04503 c 0,0.57476 -0.12212,1.1205 -0.27138,1.21275 -0.48659,0.30073 -3.01584,0.3819 -3.85118,0.1236 z m 11.77928,-0.0757 c -2.2502,-0.63736 -3.79245,-2.12416 -4.78403,-4.61206 l -0.608,-1.52548 v -3.70417 -3.70416 l 0.60966,-1.52991 c 1.34763,-3.38182 3.34744,-4.95238 6.30593,-4.95238 3.94749,0 5.88245,2.58707 6.32561,8.45746 l 0.18045,2.39045 h -5.49961 -5.49961 l 0.16627,1.59076 c 0.4985,4.76944 4.25772,6.84251 8.34296,4.60081 0.63679,-0.34942 1.20234,-0.63532 1.25677,-0.63532 0.0544,0 0.099,0.64365 0.099,1.43034 v 1.43034 l -1.25677,0.43329 c -1.73049,0.59662 -4.18929,0.74053 -5.63859,0.33003 z m 5.18937,-12.81827 c -0.21881,-1.85493 -1.08288,-3.69066 -2.07726,-4.4132 -0.96488,-0.7011 -2.53335,-0.66366 -3.58556,0.0856 -0.97863,0.69685 -2.09093,2.89696 -2.32165,4.5922 l -0.17105,1.25678 h 4.1675 4.16749 z m 38.16643,12.79277 c -2.56062,-0.68934 -4.40027,-2.48678 -5.53935,-5.41226 l -0.58152,-1.49353 -0.002,-3.04271 -0.002,-3.04271 0.54725,-1.49961 c 0.89568,-2.45445 1.96591,-3.77103 3.81755,-4.6963 l 1.63178,-0.81554 h 2.08291 c 1.25361,0 2.46136,0.15813 3.03346,0.39716 l 0.95056,0.39717 -0.16531,0.82653 c -0.0909,0.45459 -0.1653,1.05252 -0.1653,1.32872 v 0.5022 l -0.71597,-0.46912 c -0.52712,-0.34539 -1.24755,-0.46912 -2.7313,-0.46912 h -2.01534 l -1.07909,0.71411 c -3.86512,2.55781 -3.40505,11.73307 0.69633,13.88702 1.38008,0.72479 3.51888,0.81773 4.96013,0.21553 0.52243,-0.21828 1.00107,-0.39687 1.06366,-0.39687 0.0626,0 0.0778,0.62475 0.0338,1.38834 l -0.08,1.38835 -1.32292,0.30605 c -1.72882,0.39995 -2.89537,0.39641 -4.41769,-0.0134 z m 13.06496,-0.11684 c -3.54228,-1.26393 -5.3589,-5.26653 -4.9953,-11.00623 0.29466,-4.65136 1.98305,-7.59504 4.92032,-8.57847 0.49466,-0.16562 1.69168,-0.30112 2.66003,-0.30112 h 1.76066 l 1.3803,0.68783 c 2.25152,1.12198 3.56648,3.51512 3.98451,7.25155 0.44429,3.97116 -0.3971,8.05412 -2.08022,10.09467 -1.64493,1.99424 -4.96968,2.80111 -7.6303,1.85177 z m 4.00744,-2.25506 c 2.10709,-0.8804 3.12251,-3.34425 3.12251,-7.5766 0,-3.23139 -0.52192,-5.2305 -1.70064,-6.51399 -1.90242,-2.07151 -5.32254,-1.62445 -6.72082,0.87852 -1.37128,2.45461 -1.5101,8.03379 -0.26744,10.74811 1.12459,2.45643 3.29017,3.41503 5.56639,2.46396 z m 22.65712,2.51275 c -2.53224,-0.53622 -4.52251,-2.44785 -5.42943,-5.21489 l -0.51365,-1.56717 0.004,-3.175 c 0.006,-4.97171 1.19493,-7.81934 3.93334,-9.41876 l 1.35466,-0.79122 2.00498,0.0779 2.00498,0.0779 0.99411,0.75825 c 1.8761,1.43099 2.71696,3.54874 2.98186,7.50998 l 0.16367,2.44739 h -5.50029 -5.50029 l 0.17634,1.50044 c 0.34231,2.91249 1.66569,4.75098 3.9022,5.42105 l 1.07142,0.32101 1.49634,-0.31356 c 0.82299,-0.17245 1.81895,-0.55186 2.21324,-0.84312 0.39429,-0.29126 0.78124,-0.52957 0.85989,-0.52957 0.0786,0 0.14301,0.64192 0.14301,1.42648 v 1.42648 l -1.04078,0.41644 c -1.24853,0.49956 -4.0222,0.74461 -5.31927,0.46995 z m 4.77255,-12.19299 c 0,-1.82536 -0.58721,-3.53532 -1.57927,-4.59887 l -0.98746,-1.0586 h -1.24001 -1.24001 l -1.05703,1.03216 c -0.76577,0.74776 -1.20048,1.49662 -1.57767,2.7178 -0.28635,0.9271 -0.52064,1.91123 -0.52064,2.18694 v 0.5013 h 4.10104 4.10105 z m 35.1421,12.0533 c -3.45215,-0.92954 -5.30742,-4.35077 -5.31592,-9.80288 -0.008,-4.91416 1.38614,-8.16722 4.07299,-9.50613 l 1.39431,-0.69481 h 1.70329 c 2.1452,0 3.46058,0.39075 4.66932,1.3871 3.09471,2.55092 4.03559,10.24656 1.82507,14.92746 -0.84033,1.77943 -2.35799,3.12907 -4.1005,3.64654 -1.6356,0.48573 -2.56848,0.49511 -4.24856,0.0427 z m 4.56074,-2.81683 c 1.48036,-1.05411 2.36591,-3.7239 2.36591,-7.13283 0,-4.52075 -1.36032,-7.14684 -4.02711,-7.7743 -1.03225,-0.24288 -2.79158,0.21918 -3.57463,0.93881 -1.56298,1.4364 -2.36,5.12295 -1.92746,8.91534 0.33976,2.97904 1.39008,4.82098 3.17933,5.57562 0.96127,0.40542 3.06891,0.12893 3.98396,-0.52264 z m 12.69432,2.87528 c -1.34775,-0.38669 -2.32736,-1.18015 -2.99222,-2.42362 l -0.58932,-1.1022 -0.0803,-8.13593 -0.0803,-8.13594 h 1.20474 1.20474 v 7.02659 c 0,7.62119 0.18245,9.06644 1.2506,9.90665 1.55442,1.22271 4.00766,0.90043 5.32666,-0.69974 1.19845,-1.45393 1.36024,-2.61195 1.36024,-9.73608 v -6.49742 h 1.19062 1.19063 l 0.0584,7.9375 c 0.0321,4.36562 0.0619,8.8007 0.0661,9.85573 l 0.008,1.91823 h -1.05833 -1.05834 l -0.08,-1.24215 -0.08,-1.24215 -0.94156,1.0422 c -1.40478,1.55492 -3.71854,2.15426 -5.90014,1.52833 z m 31.08676,-0.0963 c -2.86565,-1.08972 -4.36667,-4.27548 -3.46914,-7.36287 0.84754,-2.91542 3.23176,-4.3044 7.87408,-4.58722 l 2.59864,-0.15832 v -1.29145 c 0,-3.35151 -2.18853,-5.00452 -5.39261,-4.07307 -0.76751,0.22312 -1.84665,0.71185 -2.39808,1.08606 -0.55143,0.37421 -1.0314,0.64473 -1.0666,0.60116 -0.0352,-0.0436 -0.13589,-0.62918 -0.22375,-1.30135 l -0.15976,-1.22212 1.79723,-0.8284 1.79723,-0.82839 1.96327,0.006 c 3.13822,0.009 4.99866,1.20629 5.74817,3.69835 0.15602,0.51874 0.32236,4.32991 0.3782,8.66511 l 0.0997,7.73906 h -0.97605 -0.97606 l -0.15954,-0.59531 c -0.0877,-0.32743 -0.16116,-0.88656 -0.16315,-1.24253 l -0.004,-0.64723 -0.8599,0.81604 c -0.47294,0.44881 -1.23659,1.00571 -1.697,1.23753 -1.24456,0.62667 -3.46525,0.76296 -4.71126,0.28913 z m 3.84031,-2.23778 c 1.06384,-0.29554 2.46482,-1.62258 2.88246,-2.73031 0.15444,-0.40966 0.28081,-1.7067 0.28081,-2.88232 v -2.13748 l -2.18282,0.18006 c -4.02204,0.33177 -5.18361,0.95022 -5.75246,3.06275 -0.37316,1.38581 -0.15473,2.43225 0.72622,3.47921 1.06364,1.26407 2.1775,1.54712 4.04579,1.02809 z m 51.250204,2.35747 c -4.095036,-0.96512 -6.448134,-4.097 -6.741874,-8.97316 -0.23495,-3.90001 0.92803,-7.38065 3.146715,-9.41764 1.659441,-1.52354 3.165713,-2.04237 5.576068,-1.92065 4.653438,0.23499 6.915705,3.0863 7.474003,9.42006 l 0.192405,2.18281 h -5.848377 -5.848376 l 0.0063,0.33073 c 0.02302,1.17638 0.656881,2.82022 1.373478,3.56188 1.504183,1.55681 5.454624,1.72902 7.808198,0.34038 0.513001,-0.30268 0.960729,-0.51572 0.99494,-0.47343 0.03421,0.0423 0.1379,0.92732 0.230452,1.96672 l 0.168222,1.88981 -1.005205,0.4022 c -2.210065,0.8843 -5.445125,1.18097 -7.527105,0.69029 z m 4.565147,-12.71278 c 0,-2.40097 -1.352497,-4.19788 -3.159628,-4.19788 -1.722834,0 -2.910972,1.39726 -3.318536,3.9026 l -0.182933,1.12448 h 3.330548 3.330549 z m 64.756243,12.62254 c -2.565295,-0.91546 -3.905965,-2.8855 -3.896255,-5.72531 0.01005,-2.97763 1.487514,-5.02566 4.298871,-5.95944 1.015021,-0.33714 4.790837,-0.83723 6.741663,-0.8929 0.453363,-0.0129 0.414602,-0.84743 -0.09895,-2.13092 -0.558483,-1.39581 -1.578425,-1.92749 -3.641487,-1.89824 l -1.574456,0.0223 -1.693545,0.83372 c -0.931439,0.45855 -1.728232,0.79242 -1.770671,0.74193 -0.04241,-0.0505 -0.15248,-0.93874 -0.244608,-1.97389 l -0.167534,-1.88209 1.519846,-0.59765 c 1.079315,-0.42442 2.292165,-0.63606 4.184359,-0.73017 l 2.66454,-0.13252 1.500637,0.43625 c 1.831578,0.53245 3.106632,1.72239 3.758009,3.50715 l 0.467546,1.28111 0.124195,7.61795 0.124169,7.61795 -2.200275,-0.0773 -2.200275,-0.0773 -0.276543,-1.09826 -0.276516,-1.09828 -1.122574,1.00024 c -1.677458,1.49464 -4.10755,1.96959 -6.220142,1.21569 z m 5.751406,-3.74539 c 0.82132,-0.53815 1.449361,-2.17495 1.647111,-4.29284 l 0.16084,-1.72226 -1.838801,0.15415 c -2.218029,0.18596 -3.889375,0.81074 -4.447514,1.66258 -0.501279,0.76501 -0.530939,2.98391 -0.04842,3.61927 0.95922,1.26304 3.070701,1.53316 4.526782,0.5791 z m 43.464031,3.76252 c -1.500584,-0.56 -2.247053,-1.13203 -3.039057,-2.3288 l -0.72054,-1.08882 -0.103346,-1.82906 c -0.132768,-2.34965 0.417883,-3.85558 1.861688,-5.09142 1.435946,-1.22914 2.965556,-1.71053 6.414082,-2.01862 1.591654,-0.14219 2.93878,-0.30342 2.993628,-0.35827 0.05485,-0.0549 0.01402,-0.55839 -0.09073,-1.11897 -0.524933,-2.80893 -3.550972,-3.61387 -7.225347,-1.92196 -0.931254,0.42879 -1.719421,0.7478 -1.751489,0.70889 -0.03209,-0.0389 -0.138959,-0.91734 -0.237463,-1.95207 l -0.179123,-1.88134 1.666028,-0.6322 1.666028,-0.63221 h 3.175 3.175 l 1.113632,0.59515 c 2.928223,1.56493 3.176481,2.47379 3.327426,12.18111 l 0.11639,7.48459 -2.146432,-0.0762 -2.146432,-0.0763 -0.273976,-1.13581 -0.27395,-1.13581 -0.652092,0.69853 c -1.515216,1.62319 -4.622747,2.37321 -6.668929,1.6096 z m 5.849541,-3.95235 c 0.876644,-0.80689 1.272937,-1.86344 1.499235,-3.99685 l 0.193807,-1.82726 -1.919181,0.16089 c -1.19306,0.10003 -2.382626,0.39095 -3.144097,0.76894 l -1.224942,0.60803 -0.340227,1.07463 -0.340228,1.07463 0.340228,1.04204 c 0.629973,1.92948 3.368675,2.53708 4.935405,1.09495 z m 14.545469,4.05483 c -1.194647,-0.36091 -2.204482,-1.07585 -2.849774,-2.01758 -1.120749,-1.63561 -1.333315,-3.38677 -1.337787,-11.01985 l -0.0041,-7.0776 h 2.513542 2.513541 l 0.0026,6.54843 c 0,3.67157 0.121073,6.97904 0.273685,7.52859 0.730621,2.63062 4.092946,2.77211 5.115984,0.21529 l 0.429683,-1.07386 v -6.60923 -6.60922 h 2.513542 2.513541 l 0.04961,9.26041 c 0.02728,5.09323 0.05704,9.58784 0.06614,9.98802 l 0.0164,0.72761 h -2.24893 -2.248958 l -0.07945,-1.37437 -0.07948,-1.37437 -1.243436,1.2818 c -1.640337,1.69093 -3.743722,2.26196 -5.915316,1.60593 z m 21.340604,0.0122 c -1.908413,-0.46056 -3.120655,-1.73432 -3.548301,-3.72833 -0.158485,-0.73902 -0.288157,-3.89765 -0.288157,-7.01919 v -5.67552 h -1.5875 -1.587501 v -1.85208 -1.85208 h 1.576362 1.576387 l 0.07726,-2.04322 0.07728,-2.0432 2.248959,-0.7144 c 1.236927,-0.39292 2.338255,-0.72363 2.447395,-0.73491 0.109141,-0.0113 0.198438,1.22963 0.198438,2.7576 v 2.77813 h 1.984375 1.984375 v 1.85208 1.85208 h -2.002869 -2.00287 l 0.08464,5.79364 0.08464,5.79364 0.528743,0.58367 0.528743,0.58368 1.389486,-0.11523 1.389486,-0.11523 v 1.7763 1.7763 l -1.175491,0.29599 c -1.294897,0.32606 -2.764261,0.3446 -3.983884,0.0503 z m -457.740175,-0.3496 c -0.0697,-0.1819 -0.0957,-6.28385 -0.0578,-13.5599 l 0.0688,-13.22916 1.25677,-0.0807 1.25677,-0.0806 v 5.96762 5.96763 h 5.15938 5.15937 v -5.95313 -5.95312 h 1.32292 1.32292 v 13.64053 13.64054 l -1.25677,-0.0806 -1.25677,-0.0806 -0.0709,-6.41615 -0.0709,-6.41614 h -5.15468 -5.15467 v 6.48229 6.48229 h -1.19893 c -0.71518,0 -1.25004,-0.13344 -1.32561,-0.33073 z m 92.60611,0.005 c -0.0707,-0.1847 -0.0976,-6.28893 -0.0598,-13.56498 l 0.0688,-13.22916 5.75469,-0.0713 5.75468,-0.0713 v 1.32807 1.32808 h -4.49791 -4.49792 v 4.63021 4.63021 h 4.36563 4.36562 v 1.19062 1.19063 h -4.36562 -4.36563 v 5.15327 5.15326 l 4.69636,0.0723 4.69635,0.0722 v 1.19062 1.19063 l -5.89333,0.0712 -5.89334,0.0712 z m 49.01352,0.16171 c -0.10386,-0.10386 -0.18883,-6.6579 -0.18883,-14.56453 v -14.3757 h 1.32517 1.32518 l -0.0684,14.48594 -0.0684,14.48594 -1.06794,0.0786 c -0.58736,0.0432 -1.1529,-0.006 -1.25677,-0.11024 z m 33.67783,-13.47134 v -13.6458 l 1.25677,0.0806 1.25677,0.0807 0.0688,12.23044 0.0688,12.23043 4.29684,0.0727 4.29684,0.0727 v 1.19062 1.19063 l -5.62239,0.0714 -5.6224,0.0714 z m 53.62589,13.43684 c -0.0637,-0.10914 -1.32663,-4.36562 -2.80657,-9.45885 -1.47994,-5.09323 -2.75258,-9.46878 -2.82809,-9.72344 l -0.1373,-0.46302 h 1.32291 1.32292 l 0.13536,0.46302 c 0.0745,0.25466 1.05154,3.8563 2.1713,8.00365 1.11977,4.14734 2.10996,7.62525 2.20043,7.72868 0.0905,0.10344 1.18946,-3.46844 2.44221,-7.9375 l 2.27772,-8.12556 1.22515,-0.0806 c 0.67384,-0.0444 1.22516,-0.005 1.22516,0.0877 0,0.23257 -5.27883,18.3133 -5.57138,19.08278 l -0.23636,0.62166 h -1.31385 c -0.72262,0 -1.36595,-0.0893 -1.42961,-0.19844 z m 28.05462,0.0345 c -0.10386,-0.10386 -0.18884,-4.57431 -0.18884,-9.93433 v -9.74548 h 1.32614 1.32613 l -0.0694,9.85573 -0.0694,9.85573 -1.06793,0.0786 c -0.58736,0.0432 -1.15291,-0.006 -1.25677,-0.11024 z m 7.67291,0 c -0.10385,-0.10386 -0.18883,-4.57431 -0.18883,-9.93433 v -9.74548 h 1.19062 1.19063 l 0.003,1.25677 0.003,1.25677 0.68344,-0.86723 c 2.09897,-2.66343 6.90288,-2.57557 8.74633,0.15998 0.99158,1.47139 1.16171,3.15689 1.08628,10.76142 l -0.0709,7.14375 -1.12448,0.0814 -1.12448,0.0814 -0.0193,-6.69595 c -0.0106,-3.68277 -0.10824,-7.32029 -0.21693,-8.08338 -0.23778,-1.66931 -1.01428,-2.60247 -2.49804,-3.002 l -1.04896,-0.28246 -1.15562,0.44134 c -1.0863,0.41486 -2.08249,1.4176 -2.62583,2.64306 -0.12904,0.29104 -0.29546,3.74385 -0.36987,7.67292 l -0.13522,7.14375 -1.06794,0.0786 c -0.58735,0.0432 -1.1529,-0.006 -1.25677,-0.11024 z m 45.846789,-8.09436 c 0,-4.55299 -0.07779,-9.08183 -0.17055,-10.0641 l -0.168672,-1.78593 h 2.419509 2.419509 v 1.38319 1.38321 l 0.841189,-1.0205 c 1.114505,-1.35209 2.592944,-1.9974 4.59285,-2.00468 2.803207,-0.0102 4.662725,1.371 5.478198,4.06905 0.227356,0.75222 0.328533,3.39498 0.330173,8.62514 l 0.0026,7.54063 -2.425197,0.0758 -2.425224,0.0758 -0.08832,-7.26675 -0.08834,-7.26675 -0.555784,-0.74653 -0.555784,-0.74653 -1.25304,-0.0816 c -1.369748,-0.0892 -2.280312,0.33818 -2.8516,1.33835 -0.243205,0.42576 -0.377719,2.59221 -0.472334,7.60677 l -0.132292,7.01146 -2.447396,0.0761 -2.447396,0.0761 -0.0026,-8.27816 z m 30.554084,7.93756 c -0.07178,-0.1874 -0.09954,-6.29384 -0.06167,-13.56989 l 0.06884,-13.22916 2.579688,-0.0757 2.579687,-0.0757 v 5.56583 5.56584 h 3.836459 3.836458 v -5.56584 -5.56583 l 2.579688,0.0757 2.579687,0.0757 v 13.49375 13.49375 h -2.513542 -2.513541 l -0.0712,-5.88698 -0.07122,-5.88698 h -3.826325 -3.826325 l -0.07123,5.88698 -0.0712,5.88698 -2.451868,0.0761 c -1.812607,0.0563 -2.485892,-0.0127 -2.582386,-0.26458 z m 42.6491936,0.14435 c -0.097023,-0.097 -0.1763977,-4.62139 -0.1763977,-10.05417 v -9.87777 h 2.5135417 2.5135417 v 10.05416 10.05417 h -2.337144 c -1.2854517,0 -2.4165455,-0.0794 -2.5135417,-0.17639 z m 9.52500011,0 c -0.0970227,-0.097 -0.17639772,-4.62139 -0.17639772,-10.05417 v -9.87777 H 2.2574169 4.4754984 l 0.1595438,0.59531 c 0.087762,0.32742 0.1611577,0.92688 0.1631421,1.33212 l 0.0037,0.73681 0.8348398,-0.95083 c 1.204013,-1.37129 2.5539701,-1.97911 4.3801509,-1.97219 2.819294,0.0107 4.714637,1.39871 5.494099,4.02351 l 0.403411,1.35839 v 7.50254 7.50253 l -2.447396,-0.0761 -2.447396,-0.0761 -0.132292,-7.30214 -0.132291,-7.30214 -0.396875,-0.50307 c -0.6301852,-0.79882 -0.8525146,-0.8916 -2.1467239,-0.89589 l -1.2207082,-0.004 -0.6941079,0.69412 c -0.3817673,0.38176 -0.81407,1.1259 -0.9606492,1.65364 -0.1465792,0.52774 -0.2672027,3.8468 -0.2679965,7.37568 l -0.00156,6.41614 h -2.337144 c -1.2854517,0 -2.41654544,-0.0794 -2.51354169,-0.17639 z M -9.4856911,156.68568 v -2.51354 h 2.5135417 2.5135417 v 2.51354 2.51354 h -2.5135417 -2.5135417 z m -126.7354189,0.13229 v -1.85208 h 1.45521 1.45521 v 1.85208 1.85209 h -1.45521 -1.45521 z m -158.46323,-4.69635 c 0.75967,-1.41883 1.49675,-2.72852 1.63795,-2.91042 0.26661,-0.34345 2.83778,-0.47458 2.83778,-0.14473 0,0.10229 -0.80367,1.40988 -1.78594,2.90574 l -1.78594,2.71975 -1.14253,0.005 -1.14254,0.005 1.38122,-2.57968 z M 20.015351,132.35581 c -6.241098,-0.98106 -12.4366604,-3.8592 -16.5111115,-7.67021 -2.83249695,-2.64934 -5.0081128,-6.81281 -6.024007,-11.52803 l -0.4836319,-2.24481 0.00556,-5.55625 0.00556,-5.556246 0.6106319,-2.38125 c 0.3358621,-1.309688 1.1531336,-3.512344 1.81620586,-4.894792 L 0.64009838,90.01068 2.7871128,87.875204 c 4.3131053,-4.289941 12.1353792,-7.886271 20.0063892,-9.19803 3.686996,-0.614466 8.990622,-1.440611 12.253119,-1.90867 9.025097,-1.294797 13.668085,-4.514397 13.046816,-9.047078 -0.211111,-1.540147 -1.04214,-3.078271 -2.098463,-3.883977 -2.571697,-1.961513 -10.252631,-3.237556 -15.37126,-2.553645 -4.597744,0.614318 -7.393517,2.03131 -8.950907,4.536633 l -0.810525,1.303785 H 9.9382712 -0.98576623 l 0.15245292,-0.992187 c 0.52990751,-3.448881 2.31976091,-7.790154 4.45018591,-10.79386 1.5650369,-2.206578 5.4852888,-5.851528 7.7090584,-7.167724 5.655416,-3.347264 11.385762,-4.787517 20.066503,-5.043467 12.65182,-0.373038 23.058465,1.889671 29.354701,6.382555 2.717086,1.938877 5.274681,4.89245 6.630909,7.65756 0.65188,1.329074 1.392317,3.130873 1.645417,4.003998 l 0.46019,1.5875 0.09017,21.563542 c 0.04958,11.859948 0.0077,27.308311 -0.09313,34.329691 l -0.183303,12.76614 H 58.877722 48.45806 v -1.87413 c 0,-1.03077 -0.0893,-1.83346 -0.198438,-1.78376 -0.10914,0.0497 -1.031875,0.5218 -2.050521,1.04911 -6.007047,3.10957 -18.345917,4.78024 -26.19375,3.54662 z m 15.345834,-17.9789 c 0.873125,-0.23468 2.592625,-0.91885 3.821086,-1.52038 l 2.233612,-1.09368 1.871583,-1.88025 c 2.167202,-2.17724 3.583147,-4.65995 4.42222,-7.75388 l 0.559699,-2.06387 0.122635,-6.019274 c 0.06747,-3.310599 0.06519,-6.019271 -0.005,-6.019271 -0.07022,0 -0.773721,0.285719 -1.56337,0.634929 -2.633636,1.164722 -8.180838,2.796797 -13.553758,3.987728 -7.123166,1.57888 -9.705367,2.520482 -12.114239,4.417471 -1.962838,1.545727 -3.307557,5.435897 -3.048556,8.819247 0.355203,4.64024 2.765372,7.66468 6.948541,8.7196 2.040202,0.51449 8.03611,0.38163 10.305574,-0.22837 z m -428.164625,-34.618834 0.0688,-51.395312 0.81951,-1.719792 c 1.53627,-3.223935 4.371,-5.626024 7.63659,-6.471088 l 1.57695,-0.408079 h 6.4267 6.4267 v 20.6375 20.6375 h 22.88646 22.88646 v -20.6375 -20.6375 h 11.77396 11.77396 v 55.694792 55.694793 h -11.77396 -11.77396 V 106.41485 81.676305 h -22.88646 -22.88646 v 24.738545 24.73854 h -11.51201 -11.51201 z m 104.77435,0.132292 0.0694,-51.263021 0.95595,-2.001691 c 1.26076,-2.63991 3.1337,-4.512848 5.7736,-5.773602 l 2.0017,-0.955957 36.04948,-0.07075 36.04948,-0.07075 v 9.661899 9.661899 h -29.10417 -29.10417 v 11.773958 11.773958 h 21.69584 21.69583 v 4.57462 c 0,3.280682 -0.11615,5.020662 -0.41063,6.151562 -0.84836,3.257899 -3.05667,5.933379 -6.16594,7.470323 l -1.99428,0.985787 -17.41041,0.07346 -17.41041,0.07346 v 14.147895 14.147902 h 29.10417 29.10417 v 10.45104 10.45104 h -40.48454 -40.48455 z m 92.8059,-4.431771 V 19.763805 l 4.29948,-0.06615 c 2.36471,-0.03638 5.39392,-0.03996 6.73158,-0.008 6.2171,0.14873 10.27894,3.307782 11.86093,9.224704 l 0.41844,1.56503 -0.0245,39.885938 -0.0245,39.885943 h 27.1307 27.13071 v 10.45104 10.45104 h -38.76146 -38.76146 V 75.458597 Z m 89.22808,4.299479 0.0688,-51.395312 0.81952,-1.719792 c 1.53628,-3.223935 4.371,-5.626024 7.636592,-6.471088 l 1.576944,-0.408079 h 6.426702 6.426703 v 20.6375 20.6375 h 22.886459 22.886458 v -20.6375 -20.6375 h 11.773959 11.773958 V 75.458597 131.15339 H -25.492983 -37.266942 V 106.41485 81.676305 H -60.1534 -83.039859 v 24.738545 24.73854 h -11.512021 -11.51199 z"
         id="path9490" />
      <path
         style="fill:#9ca2a8;stroke-width:0.264583"
         d="m -94.980346,182.74936 c -5.560004,-0.97053 -8.413534,-6.29827 -6.984764,-13.04099 1.0219,-4.82254 4.27633,-7.58316 8.575756,-7.27452 4.382321,0.3146 6.81789,3.39819 7.110545,9.00235 l 0.1347,2.57969 h -5.759874 -5.759873 l 0.169095,1.23379 c 0.219393,1.60064 0.887995,2.71682 2.028852,3.38706 l 0.916675,0.53852 2.248958,-0.005 2.248959,-0.005 1.208008,-0.5904 c 0.664422,-0.32473 1.294712,-0.59041 1.400651,-0.59041 0.105966,0 0.157665,0.85871 0.114909,1.90824 l -0.07774,1.90823 -1.455208,0.4385 c -1.857084,0.5596 -4.549326,0.78386 -6.119654,0.50975 z m 4.002987,-12.96145 c 0,-1.38865 -0.683921,-3.04754 -1.468332,-3.5615 -0.346339,-0.22693 -1.122071,-0.4126 -1.723813,-0.4126 h -1.094105 l -0.872305,0.87231 c -0.843783,0.84378 -1.451504,2.33095 -1.454547,3.55946 l -0.0026,0.59531 h 3.307292 3.307292 v -1.05298 z m 65.484376,12.98626 c -3.890883,-0.99551 -5.714259,-4.96366 -3.986239,-8.6751 1.117309,-2.39971 3.4358,-3.48824 7.918873,-3.71789 l 2.874301,-0.14724 -0.133244,-1.18196 c -0.172587,-1.53138 -0.897625,-2.48213 -2.259806,-2.96334 l -1.094449,-0.38662 -1.527413,0.31896 c -0.840105,0.17543 -2.103967,0.6173 -2.808632,0.98193 -0.704638,0.36464 -1.329716,0.66298 -1.389062,0.66298 -0.05932,0 -0.107871,-0.88442 -0.107871,-1.96537 v -1.96536 l 1.521354,-0.57948 c 0.979065,-0.37292 2.3758,-0.62739 3.918374,-0.71388 3.97129,-0.22268 6.325261,0.77287 7.582561,3.20685 l 0.563669,1.0912 0.08313,2.91041 c 0.04575,1.60073 0.123904,5.14284 0.173672,7.87136 l 0.09054,4.96094 h -2.204165 -2.204138 v -1.24433 -1.24432 l -0.992187,0.96682 c -1.563132,1.52316 -4.130596,2.29667 -6.019271,1.81344 z m 5.123445,-3.92207 c 0.870161,-0.6409 1.596548,-2.67133 1.611841,-4.50548 l 0.01159,-1.38906 h -1.407186 c -3.918268,0 -6.093646,1.94484 -5.200942,4.64976 0.619946,1.87842 3.237072,2.53197 4.984698,1.24478 z m 43.610663,3.79194 c -2.355745,-0.65197 -4.134671,-3.03536 -4.145995,-5.55475 -0.01931,-4.32488 2.650411,-6.41927 8.557022,-6.71261 l 2.874301,-0.14274 -0.129408,-1.14792 c -0.168936,-1.4988 -0.802719,-2.42764 -1.997022,-2.92665 -1.325853,-0.55397 -3.45649,-0.27119 -5.445522,0.72275 -0.863996,0.43175 -1.601602,0.75429 -1.639146,0.71677 -0.03752,-0.0375 -0.09927,-0.90101 -0.13724,-1.91884 l -0.069,-1.85062 1.569799,-0.6323 c 2.152174,-0.86689 5.759265,-1.06549 7.923716,-0.43627 2.058008,0.59828 3.374099,1.89116 3.927819,3.85854 l 0.406215,1.44336 0.07998,7.21 0.07996,7.21 -2.182812,-1e-4 -2.182813,-1e-4 v -0.88195 c 0,-1.26019 -0.219313,-1.32928 -1.275609,-0.40185 -1.726195,1.51561 -4.0268,2.05068 -6.214242,1.44528 z m 5.090451,-3.53533 c 1.205812,-0.61442 1.861846,-1.9796 2.054251,-4.27484 l 0.157321,-1.87631 -1.559745,0.0116 c -2.230728,0.0166 -4.053946,0.70616 -4.794753,1.81349 -1.877562,2.8066 1.074764,5.88946 4.142926,4.32609 z m 15.025634,3.52725 c -2.305923,-0.62017 -3.471836,-2.30243 -3.911785,-5.64427 -0.148405,-1.12737 -0.235109,-4.7882 -0.192669,-8.13518 l 0.07718,-6.08541 2.447395,-0.0761 2.447396,-0.0761 0.0026,6.69065 c 0,3.7876 0.120095,7.11779 0.274849,7.67505 0.342662,1.23378 1.123659,1.79374 2.501795,1.79374 1.321593,0 2.173128,-0.56748 2.731796,-1.82052 l 0.426958,-0.95761 0.09763,-6.68073 0.09761,-6.68072 h 2.35167 2.351643 l 0.07239,9.92197 0.07239,9.92198 -2.315104,-1e-4 -2.316269,-1e-4 v -1.34056 -1.34055 l -1.274207,1.30818 -1.274206,1.30818 -1.384644,0.29696 c -1.6519,0.35426 -1.676347,0.35368 -3.284459,-0.0788 z m 21.563357,0.10713 c -1.535562,-0.31952 -2.66745,-1.18217 -3.25837,-2.48332 l -0.492522,-1.08451 -0.0058,-6.41614 -0.0058,-6.41615 h -1.5875 -1.5875 v -1.85208 -1.85208 h 1.5875 1.5875 v -2.05053 -2.05052 l 2.314204,-0.69056 2.314205,-0.69056 0.07509,2.74108 0.07511,2.74109 h 1.975406 1.975432 v 1.85208 1.85208 h -1.984375 -1.984375 v 5.5438 c 0,3.67324 0.10459,5.77333 0.309933,6.22405 0.361024,0.79233 1.157472,1.05342 2.616464,0.85773 l 1.042353,-0.13981 v 1.70117 1.70116 l -0.651087,0.24755 c -1.037696,0.39452 -3.088799,0.52016 -4.317656,0.26447 z m -435.057877,-0.61181 c -3.01441,-1.59201 -3.84394,-6.40313 -1.55376,-9.0115 1.34222,-1.5287 4.59266,-2.52323 8.29577,-2.53823 l 1.29352,-0.005 -0.14382,-1.58601 c -0.268,-2.95562 -1.7558,-4.3803 -4.32512,-4.14163 -1.35953,0.12629 -3.85585,1.19634 -4.23964,1.81733 -0.23794,0.385 -0.55656,-0.53349 -0.59896,-1.72665 l -0.0264,-0.74216 1.52136,-0.6805 c 1.81309,-0.811 4.45013,-1.07475 6.15156,-0.61527 1.52655,0.41225 2.98169,1.90508 3.38458,3.47226 0.17363,0.67541 0.3374,4.28209 0.39206,8.6344 l 0.0939,7.47448 h -1.00922 -1.00921 v -1.24433 -1.24432 l -0.99218,0.96682 c -1.3021,1.26881 -2.60999,1.78641 -4.51395,1.78641 -1.11695,0 -1.88255,-0.17332 -2.72048,-0.61586 z m 5.30445,-2.02398 c 1.83464,-0.93596 2.65758,-2.68263 2.65758,-5.6406 v -1.85148 l -2.49048,0.14859 c -4.00456,0.23892 -5.36067,1.09674 -5.84903,3.69992 l -0.18278,0.97434 0.56691,1.17109 c 0.94322,1.94843 3.17698,2.5801 5.2978,1.49814 z m 12.84404,2.26634 c -1.02269,-0.45454 -1.83866,-1.35056 -2.43402,-2.67282 l -0.47489,-1.05472 -0.0846,-7.87136 -0.0846,-7.87135 h 1.20831 1.20831 l 0.0204,7.20989 c 0.0229,8.13215 0.15486,8.9778 1.54695,9.91593 1.94842,1.31304 4.43483,0.53115 5.64261,-1.7744 l 0.7276,-1.38893 v -6.98125 -6.98124 h 1.19063 1.19062 v 6.9703 c 0,3.83366 0.0781,8.24673 0.17356,9.80681 l 0.17355,2.83651 -1.16574,-0.0834 -1.16575,-0.0834 -0.0815,-1.12657 -0.0815,-1.12658 -0.67942,0.80745 c -1.06073,1.2606 -2.45342,1.84417 -4.37263,1.83222 -0.91531,-0.006 -2.02138,-0.16911 -2.45794,-0.36314 z m 17.56343,-0.0242 c -0.38105,-0.20708 -0.91683,-0.82739 -1.19062,-1.37847 l -0.49781,-1.00195 -0.0846,-7.47448 -0.0846,-7.47447 h -1.43679 -1.4368 v -1.05834 -1.05833 h 1.45521 1.45521 v -1.95849 -1.9585 l 0.83323,-0.29046 c 0.45828,-0.15976 0.99406,-0.29047 1.19062,-0.29047 h 0.3574 v 2.24896 2.24896 h 1.98437 1.98438 v 1.05833 1.05834 h -1.99993 -1.99993 l 0.0817,7.29978 0.0817,7.29978 0.65868,0.533 0.65867,0.533 1.25956,-0.12103 1.25955,-0.12102 v 1.15178 1.15179 l -1.91823,-0.0106 c -1.13862,-0.006 -2.19981,-0.16362 -2.61105,-0.3871 z m 11.15713,-0.31021 c -2.594,-1.34437 -3.90085,-3.85888 -4.17076,-8.02493 -0.43829,-6.7651 2.42262,-11.35135 7.09244,-11.36969 3.77219,-0.0148 5.68953,2.71209 6.18158,8.79159 l 0.16595,2.05052 h -5.43499 -5.43499 v 1.15736 c 0,4.7292 4.01988,7.28125 8.24635,5.23525 0.64963,-0.31447 1.26261,-0.57176 1.36219,-0.57176 0.0996,0 0.18104,0.53272 0.18104,1.18383 v 1.18383 l -0.85989,0.45497 c -0.58273,0.30833 -1.67009,0.48743 -3.37344,0.55566 l -2.51354,0.10069 -1.44194,-0.74731 z m 6.50539,-12.30817 c -0.30378,-2.90635 -1.47978,-4.57061 -3.45637,-4.89136 -2.18794,-0.35506 -4.64979,2.70448 -4.64979,5.77867 v 0.7517 h 4.13874 4.13873 l -0.17131,-1.639 z m 37.0053,12.36958 c -1.55426,-0.75348 -2.18087,-1.26353 -3.12864,-2.54666 -2.81107,-3.80572 -2.38412,-11.57859 0.81658,-14.86635 1.72687,-1.77383 5.26116,-2.54947 8.06675,-1.77032 l 0.99219,0.27555 v 1.31047 c 0,0.72077 -0.045,1.31049 -0.1,1.31049 -0.055,0 -0.52741,-0.1786 -1.04983,-0.39688 -0.52242,-0.21828 -1.61327,-0.39687 -2.4241,-0.39687 -3.56886,0 -5.6865,2.698 -5.6865,7.24493 0,5.03168 2.3293,8.15382 6.08325,8.15382 0.85871,0 1.9177,-0.17781 2.35333,-0.39513 0.43563,-0.21732 0.85874,-0.32845 0.94024,-0.24695 0.0815,0.0815 0.14818,0.65853 0.14818,1.28228 v 1.13409 l -0.99219,0.27554 c -0.5457,0.15155 -1.82562,0.27505 -2.84427,0.27444 l -1.85208,-0.001 -1.32292,-0.64134 z m 13.95383,0.29332 c -2.44133,-0.88539 -4.06148,-3.44947 -4.60412,-7.28656 l -0.31064,-2.19664 0.31491,-2.424 c 0.67764,-5.21616 3.03832,-7.8028 7.15178,-7.83633 0.78348,-0.006 1.91376,0.13497 2.51172,0.31412 1.56684,0.46944 3.39633,2.36346 4.15782,4.30447 l 0.6228,1.5875 v 3.83646 3.83646 l -0.62007,1.55597 c -0.74722,1.87501 -2.1622,3.51381 -3.59886,4.16812 -1.22817,0.55934 -4.26146,0.63507 -5.62534,0.14043 z m 5.15691,-2.50628 c 1.82885,-1.30225 2.81919,-5.42013 2.24726,-9.34416 -0.34008,-2.33328 -0.8411,-3.58752 -1.82685,-4.57327 -1.59167,-1.59167 -4.2408,-1.55616 -5.87572,0.0788 -1.29708,1.29708 -1.88147,3.34151 -1.88147,6.58216 0,4.14115 0.69747,6.09281 2.65213,7.42112 l 0.91974,0.62502 1.47252,-0.10291 c 0.96529,-0.0675 1.75492,-0.30401 2.29239,-0.68672 z m 19.95985,2.17066 c -0.76024,-0.37885 -1.67302,-1.07001 -2.02838,-1.53592 -3.07979,-4.03781 -2.82724,-12.51143 0.4768,-15.99768 1.17315,-1.23785 2.67317,-1.8743 4.41745,-1.8743 3.84743,0 5.80804,2.65135 6.24547,8.44584 l 0.18045,2.39045 h -5.49961 -5.49961 l 0.1708,1.63416 c 0.23424,2.24104 1.31002,4.10687 2.84291,4.93072 l 1.16271,0.6249 1.64312,-0.12399 c 1.13464,-0.0856 2.01482,-0.34183 2.84427,-0.82792 l 1.20116,-0.70393 v 1.4141 1.41409 l -1.25678,0.45045 c -0.79109,0.28355 -2.04633,0.44997 -3.38763,0.44915 l -2.13086,-0.001 -1.38227,-0.68882 z m 6.50625,-12.38549 c -0.32212,-4.01293 -3.30436,-6.10969 -5.84614,-4.11033 -0.88033,0.69247 -1.9779,2.97003 -2.19304,4.55077 l -0.17104,1.25678 h 4.17323 4.17322 z m 34.45962,12.6531 c -3.16172,-1.36736 -4.69181,-5.03191 -4.43566,-10.62332 0.16775,-3.66167 0.83318,-5.53581 2.56675,-7.22907 1.51217,-1.47702 3.00901,-1.96434 5.43536,-1.76958 3.04185,0.24417 4.94027,1.88921 5.95953,5.16409 1.94615,6.25299 -0.10415,13.34581 -4.21375,14.57708 -1.40683,0.42149 -4.2073,0.35865 -5.31223,-0.1192 z m 4.76196,-2.09207 c 1.10301,-0.57038 2.00297,-1.88436 2.52215,-3.68243 l 0.45202,-1.56549 -0.13907,-2.93243 c -0.16708,-3.52345 -0.53252,-4.73143 -1.8212,-6.02011 -1.69775,-1.69775 -4.30714,-1.64555 -6.03397,0.1207 -1.2477,1.27617 -1.72772,3.20341 -1.69456,6.80345 0.0292,3.17125 0.35899,4.59043 1.40951,6.06577 1.0545,1.4809 3.641,2.0711 5.30512,1.21054 z m 12.70054,2.21735 c -1.16754,-0.46312 -2.3766,-1.87413 -2.78537,-3.25062 l -0.38963,-1.31201 v -7.4926 -7.4926 h 1.19062 1.19063 v 7.41683 7.41683 l 0.36036,0.8514 c 0.1982,0.46827 0.61008,1.07384 0.9153,1.34571 0.71049,0.63285 2.70857,0.8637 3.74826,0.43304 1.07579,-0.44561 2.29371,-1.88086 2.63309,-3.10293 0.15974,-0.57524 0.27816,-3.83492 0.27901,-7.68015 l 0.001,-6.68073 h 1.19062 1.19063 v 8.56203 c 0,4.70911 0.0757,9.11443 0.16825,9.78958 l 0.16826,1.22756 h -1.22659 -1.22659 l -0.003,-1.25678 -0.003,-1.25677 -0.68344,0.86723 c -1.03283,1.31058 -2.4322,1.91389 -4.39338,1.89413 -0.9153,-0.009 -1.96184,-0.13484 -2.32565,-0.27915 z m 31.08854,-0.14372 c -2.07659,-1.09475 -3.02795,-2.76308 -3.0369,-5.32559 -0.014,-4.00933 2.50214,-5.89286 8.43463,-6.31396 l 2.4581,-0.17448 -0.1765,-1.47993 c -0.0971,-0.81397 -0.38236,-1.88575 -0.63398,-2.38174 -0.52759,-1.04 -1.90781,-1.87633 -3.09657,-1.87633 -1.16753,0 -3.10599,0.6286 -4.08229,1.32379 -0.95653,0.68111 -1.24038,0.51594 -1.36555,-0.79462 l -0.0884,-0.92604 1.58568,-0.79186 1.58569,-0.79186 1.90131,-0.096 1.90131,-0.096 1.44698,0.66245 1.44697,0.66244 0.75457,1.28376 0.75458,1.28375 0.0639,3.04271 c 0.0352,1.67349 0.0955,5.27513 0.13405,8.00365 l 0.0701,4.96094 h -0.99394 -0.99395 l -0.004,-0.59532 c -0.002,-0.32742 -0.0739,-0.85758 -0.15989,-1.17813 l -0.15627,-0.58282 -0.64004,0.76064 c -1.4472,1.7199 -5.14192,2.4581 -7.10998,1.42057 z m 5.17742,-2.29024 c 1.62145,-0.85745 2.36406,-2.37338 2.55951,-5.22489 l 0.14955,-2.18199 -2.53112,0.15101 c -4.08458,0.24368 -5.66612,1.2367 -5.94764,3.7344 -0.36622,3.24903 2.72134,5.13348 5.7697,3.52147 z m -246.8743,-11.02845 v -13.49375 h 1.19063 1.19062 v 5.95312 5.95313 h 5.15432 5.15431 l 0.0712,-5.88698 0.0712,-5.88698 h 1.19062 1.19063 l 0.0686,13.4276 0.0686,13.42761 h -1.32535 -1.32534 v -6.35 -6.35 h -5.15937 -5.15938 v 6.35 6.35 h -1.19062 -1.19063 z m 92.60417,0 v -13.49375 h 5.68854 5.68854 v 1.19062 1.19063 h -4.49791 -4.49792 v 4.7625 4.7625 h 4.38084 4.38084 l -0.0814,1.12447 -0.0814,1.12448 -4.29948,0.0727 -4.29948,0.0727 v 5.28512 5.28511 h 4.7625 4.7625 v 1.05833 1.05834 h -5.95312 -5.95313 z m 48.68334,-0.92605 v -14.41979 h 1.19062 1.19063 v 14.41979 14.4198 h -1.19063 -1.19062 z m 33.86666,0.92605 v -13.49375 h 1.18801 1.18801 l 0.0688,12.36927 0.0688,12.36927 4.29948,0.0727 4.29948,0.0727 v 1.05178 1.05178 h -5.55625 -5.55625 z m 53.62131,13.29531 c -0.0662,-0.10914 -1.32865,-4.36563 -2.80546,-9.45886 -1.47682,-5.09323 -2.73564,-9.40924 -2.79738,-9.59114 -0.0795,-0.23412 0.25717,-0.33073 1.15239,-0.33073 h 1.26465 l 2.20377,8.13594 c 1.21206,4.47476 2.26692,8.24679 2.34413,8.38228 0.0772,0.13549 1.02236,-2.9006 2.10033,-6.74687 1.07797,-3.84627 2.13763,-7.6183 2.3548,-8.38229 l 0.39485,-1.38906 h 1.20015 c 0.84836,0 1.16464,0.0969 1.079,0.33073 -0.0666,0.1819 -1.35931,4.58718 -2.87258,9.78951 l -2.75141,9.45878 -1.37345,7e-5 c -0.7554,4e-5 -1.42761,-0.0892 -1.49379,-0.19836 z m 28.13494,-9.59115 v -9.78958 h 1.19063 1.19062 v 9.78958 9.78959 h -1.19062 -1.19063 z m 7.67292,2.81929 c 0,-3.83367 -0.0781,-8.24673 -0.17357,-9.80682 l -0.17354,-2.83651 1.16573,0.0834 1.16576,0.0834 0.08,1.24215 0.0801,1.24214 0.97828,-1.08415 c 0.53805,-0.59629 1.36141,-1.24455 1.82969,-1.44059 1.35338,-0.56657 3.516,-0.45125 4.86167,0.25926 l 1.1661,0.61568 0.79375,1.54758 0.79375,1.54757 0.0871,7.75862 0.0871,7.75862 h -1.19669 -1.19671 l -0.081,-7.60678 -0.081,-7.60677 -0.54168,-0.92604 c -1.47503,-2.52165 -5.39539,-1.83814 -6.76619,1.17968 l -0.48572,1.06928 -0.006,6.94531 -0.006,6.94532 h -1.19062 -1.19063 v -6.9703 z m 45.769293,-2.35627 c -0.0026,-5.12961 -0.07665,-9.59931 -0.165973,-9.93266 l -0.162348,-0.60611 2.348785,0.0769 2.348786,0.0769 0.132292,1.38643 0.132291,1.38643 0.622485,-0.91328 c 0.349727,-0.5131 1.213009,-1.20756 1.970167,-1.58487 3.242892,-1.616 7.026778,-0.13066 7.997931,3.13953 l 0.389626,1.31201 v 7.4926 7.49261 h -2.38125 -2.38125 l -0.0026,-6.54844 c 0,-3.67157 -0.121074,-6.97904 -0.273685,-7.52859 -0.709904,-2.55601 -3.970258,-2.7168 -5.194485,-0.25618 l -0.482309,0.97175 -0.0862,6.68073 -0.0862,6.68073 h -2.361195 -2.361194 l -0.0037,-9.32657 z m 30.695292,-4.17711 V 155.4752 l 2.447396,0.0761 2.447396,0.0761 0.07152,5.4901 0.07152,5.49011 h 3.825717 3.825716 l 0.07152,-5.49011 0.07152,-5.4901 2.447396,-0.0761 2.447396,-0.0761 v 13.50368 13.50368 h -2.513542 -2.513542 v -5.82084 -5.82083 h -3.836458 -3.836459 v 5.82083 5.82084 h -2.513541 -2.513542 z m 42.3962518,3.64795 0.069374,-9.85573 2.4473959,-0.0761 2.4473959,-0.0761 v 9.9318 9.93181 h -2.5167697 -2.5167431 z m 9.46208219,-0.0662 v -9.92187 H 2.2882674 4.5372257 l 0.0037,0.7276 c 0.00265,0.40018 0.073052,0.9865 0.1579033,1.30293 l 0.1543315,0.57533 0.8319823,-0.94759 c 1.5179146,-1.7288 3.8640809,-2.32611 6.3927832,-1.62753 1.528419,0.42225 2.854167,1.92702 3.394578,3.85303 l 0.441881,1.5749 v 7.19254 7.19254 h -2.513542 -2.513542 v -7.07761 -7.0776 l -0.51554,-0.84554 c -1.0730977,-1.75993 -3.8304001,-1.31579 -4.7768147,0.76943 l -0.5148791,1.13444 -0.00582,6.54844 -0.00582,6.54844 H 2.554888 0.04134629 v -9.92188 z M -9.4856911,156.55339 v -2.38125 h 2.5135417 2.5135417 v 2.38125 2.38125 h -2.5135417 -2.5135417 z m -126.7354189,0.26458 v -1.87974 l 1.38906,0.08 1.38907,0.08 v 1.71979 1.71979 l -1.38907,0.08 -1.38906,0.08 z m -159.54375,-2.28216 c 0,-0.091 0.61482,-1.34119 1.36628,-2.77813 l 1.36628,-2.61262 h 1.41776 1.41776 l -1.86392,2.77812 -1.86391,2.77813 h -0.92013 c -0.50606,0 -0.92012,-0.0745 -0.92012,-0.1655 z M 20.96756,132.44516 C 13.51139,131.58054 5.3792622,127.42701 1.7509515,122.6302 -1.7789342,117.96348 -3.3726519,111.77246 -3.0660527,103.91785 -2.70868,94.761975 0.15323858,88.991545 6.304907,85.023351 c 6.104599,-3.937839 11.276701,-5.550318 23.896902,-7.450223 7.097263,-1.068456 8.866744,-1.418254 11.284744,-2.230794 4.206135,-1.413418 6.423105,-3.476252 6.647789,-6.185593 0.420052,-5.065509 -3.726471,-7.619564 -13.037741,-8.030573 -3.762296,-0.166074 -6.428396,0.189817 -9.181465,1.2256 -1.705769,0.64176 -3.81844,2.403758 -4.581869,3.821325 L 20.82106,67.124222 H 9.9351756 -0.95070894 l 0.22050376,-1.180285 C 0.60615234,58.79076 4.3867836,52.972501 10.358059,48.879526 c 3.389551,-2.323346 8.13308,-4.122164 13.38834,-5.077054 l 3.148119,-0.572019 6.614583,-0.0073 c 4.806791,-0.0053 7.51848,0.116192 9.921875,0.444674 9.379585,1.281947 15.817136,3.976256 20.248298,8.474522 2.974314,3.019338 4.752843,6.43609 5.572655,10.705716 l 0.372798,1.941505 -0.03662,23.458495 C 69.568,101.15019 69.47865,116.11183 69.389671,121.4961 l -0.161819,9.78958 H 58.909102 48.590351 l -0.07792,-1.92786 -0.07795,-1.92785 -0.804333,0.57273 c -1.146016,0.81605 -4.713049,2.27635 -7.065354,2.89247 -5.879412,1.53997 -14.086179,2.18906 -19.597238,1.54999 z m 14.658208,-18.07451 c 5.948918,-1.64549 10.494724,-6.19286 12.184962,-12.18914 l 0.44749,-1.5875 0.128005,-6.322932 0.127979,-6.322933 -0.491093,0.196868 c -5.258991,2.108211 -8.623538,3.107233 -15.60703,4.634119 -8.33972,1.823419 -11.429841,3.385365 -13.044329,6.593427 -1.036717,2.059951 -1.434439,4.085051 -1.290558,6.570741 l 0.121549,2.09957 0.796132,1.70129 c 1.231847,2.63243 2.922481,4.03574 5.911268,4.9067 1.674415,0.48793 8.592608,0.30702 10.715625,-0.28021 z M -392.86048,80.551826 c 0.004,-33.136647 0.0988,-51.002031 0.27396,-51.76185 0.71157,-3.086504 3.51462,-6.518187 6.40503,-7.841459 2.19546,-1.005115 3.75446,-1.184712 10.28399,-1.184712 h 6.0493 v 20.769792 20.769792 h 22.88646 22.88646 V 40.533597 19.763805 h 11.64167 11.64166 v 55.694792 55.694793 h -11.64166 -11.64167 V 106.41485 81.676305 h -22.88646 -22.88646 v 24.738545 24.73854 h -11.50937 -11.50938 z m 104.76853,0.366842 c 0,-32.63764 0.0934,-50.727174 0.26661,-51.640538 0.85968,-4.533085 4.72636,-8.408136 9.22836,-9.248344 0.90947,-0.169734 14.09778,-0.265981 36.44636,-0.265981 h 35.02118 v 9.657292 9.657292 h -29.10417 -29.10417 v 11.90625 11.90625 h 21.69584 21.69583 v 4.22031 c 0,4.635582 -0.2595,6.358581 -1.25538,8.335296 -1.44123,2.860691 -3.98837,5.073113 -6.86278,5.960925 l -1.72716,0.533469 h -16.77318 -16.77317 v 14.155208 14.155213 h 29.10417 29.10417 v 10.45104 10.45104 h -40.48125 -40.48126 z m 92.99139,49.904882 c -0.0693,-0.18239 -0.0955,-25.21568 -0.0582,-55.629536 l 0.0678,-55.297917 6.21765,-0.07118 c 3.73393,-0.04275 6.76932,0.04334 7.59869,0.21552 4.4209,0.917775 7.65694,4.21914 8.92536,9.105525 l 0.40934,1.576942 v 39.762955 39.762961 l 27.05365,0.0674 27.05364,0.0674 v 10.31875 10.31874 l -38.57098,0.067 -38.57099,0.067 z m 89.04841,-50.271724 c 0.004,-33.136647 0.0988,-51.002031 0.27397,-51.76185 0.71157,-3.086504 3.51462,-6.518187 6.405036,-7.841459 2.19546,-1.005115 3.754464,-1.184712 10.283984,-1.184712 h 6.049301 V 40.533597 61.303389 H -60.1534 -37.266942 V 40.533597 19.763805 h 11.641667 11.641667 V 75.458597 131.15339 H -25.625275 -37.266942 V 106.41485 81.676305 H -60.1534 -83.039859 v 24.738545 24.73854 h -11.509375 -11.509376 l 0.006,-50.601564 z"
         id="path9488" />
      <path
         style="fill:#707881;stroke-width:0.264583"
         d="m -369.87457,182.22036 c -2.89413,-1.52966 -3.93504,-5.10709 -2.37548,-8.16409 1.06379,-2.0852 3.77629,-3.21538 7.71709,-3.21538 h 2.35768 l -0.002,-1.25677 c -0.002,-1.82631 -0.41449,-3.03378 -1.33785,-3.91765 l -0.81351,-0.77871 h -1.92362 -1.92362 l -1.39952,0.87006 c -0.76973,0.47854 -1.43833,0.83125 -1.48576,0.78382 -0.0474,-0.0474 -0.163,-0.56625 -0.25681,-1.15292 l -0.17057,-1.06667 1.67981,-0.77287 1.6798,-0.77288 2.11667,0.002 2.11667,0.002 1.11306,0.59028 c 0.73131,0.38784 1.36582,1.02149 1.85002,1.84751 l 0.73695,1.25721 0.0653,2.77813 c 0.0359,1.52797 0.10027,5.12961 0.14296,8.00365 l 0.0776,5.22552 h -1.00078 -1.00079 v -1.3832 -1.3832 l -0.79343,0.96256 c -1.62842,1.97556 -4.98434,2.69709 -7.17044,1.54165 z m 4.7055,-1.8721 c 1.9883,-0.75334 2.97958,-2.62449 2.98798,-5.64014 l 0.006,-2.08589 -2.60284,0.12533 c -3.93565,0.18951 -5.50714,1.19746 -5.79082,3.71419 -0.16768,1.48765 0.49301,2.97914 1.62561,3.6698 0.90516,0.55197 2.6283,0.65091 3.77426,0.21671 z m 13.18025,1.90127 c -1.29702,-0.59559 -1.92458,-1.27528 -2.3948,-2.59373 l -0.3601,-1.0097 -0.0116,-7.87136 -0.0116,-7.87135 h 1.05834 1.05833 v 7.41683 7.41683 l 0.36481,0.87312 c 0.57618,1.37898 1.59313,2.0203 3.20362,2.0203 1.77844,0 2.9186,-0.74698 3.82422,-2.50546 l 0.67714,-1.31484 0.0856,-6.95339 0.0856,-6.95339 h 1.03885 1.03886 v 8.56203 c 0,4.70911 0.0757,9.11443 0.16825,9.78958 l 0.16826,1.22756 h -1.07808 -1.07809 l -0.18327,-1.22214 -0.18327,-1.22214 -0.6718,0.85839 c -1.37009,1.75065 -4.55361,2.38408 -6.79929,1.35286 z m 17.50637,-0.0443 c -0.39375,-0.30972 -0.89212,-0.90389 -1.10749,-1.32038 l -0.39159,-0.75725 v -7.55376 -7.55376 h -1.45521 -1.45521 v -1.05834 -1.05833 h 1.45521 1.45521 v -1.95849 -1.9585 l 0.83323,-0.29046 c 0.45828,-0.15976 0.93453,-0.29047 1.05834,-0.29047 0.1238,0 0.2251,1.01203 0.2251,2.24896 v 2.24896 h 1.98437 1.98438 v 1.05833 1.05834 h -1.99634 -1.99634 l 0.0781,7.24872 0.0781,7.24874 0.52304,0.57748 0.52304,0.57749 1.40749,-0.0872 1.40749,-0.0872 -0.0784,1.05833 -0.0784,1.05834 -1.86908,0.0767 -1.86907,0.0768 z m 11.82346,0.11119 c -1.44728,-0.51304 -2.9285,-1.9867 -3.70777,-3.68886 -1.42206,-3.10617 -1.38352,-8.53031 0.0838,-11.80001 1.55229,-3.45896 5.14629,-5.08277 8.16077,-3.68711 2.39638,1.10949 3.55481,3.49309 3.77456,7.76661 l 0.13264,2.57969 h -5.46844 -5.46845 l 0.16966,1.38906 c 0.24451,2.00192 1.19822,3.95884 2.36191,4.84643 l 0.98976,0.75494 1.66612,0.10609 1.66612,0.10609 1.45783,-0.66742 1.45783,-0.66741 0.1732,1.02515 c 0.0953,0.56383 0.0988,1.14549 0.008,1.29257 -0.58672,0.94933 -5.41914,1.36675 -7.4575,0.64418 z m 5.93113,-12.60777 c -0.24248,-3.02074 -1.78705,-4.94998 -3.96477,-4.95217 -1.16342,-0.001 -2.60937,1.12435 -3.36564,2.61979 -0.38057,0.75254 -1.07534,3.25587 -1.07534,3.87454 0,0.0656 1.9213,0.11927 4.26956,0.11927 h 4.26955 z m 37.25197,12.50392 c -1.72598,-0.67389 -3.37478,-2.33533 -4.29618,-4.32913 l -0.748,-1.61857 0.009,-3.57188 0.009,-3.57187 0.58137,-1.45521 c 1.53947,-3.85344 5.10505,-5.66568 9.39499,-4.7751 l 1.51587,0.3147 v 1.29066 1.29065 l -0.95086,-0.39729 c -1.13182,-0.4729 -3.62664,-0.52976 -4.73768,-0.10796 -1.05187,0.39933 -2.16626,1.47982 -2.86851,2.78121 l -0.57108,1.05834 v 3.175 3.175 l 0.62695,1.38685 c 0.77099,1.70551 2.28366,3.11614 3.77101,3.51665 1.25897,0.339 3.24424,0.13951 4.10454,-0.41244 l 0.56499,-0.36249 0.16261,0.81306 c 0.31248,1.5624 0.23167,1.72503 -1.01289,2.03842 -1.74657,0.43979 -4.07269,0.33986 -5.55427,-0.2386 z m 14.07568,0.27114 c -3.65657,-1.10101 -5.52522,-5.5693 -4.93094,-11.79081 0.27997,-2.93103 0.92558,-4.51245 2.48856,-6.09568 l 1.33164,-1.3489 1.4113,-0.33857 c 2.79156,-0.66968 5.56703,0.11676 7.13795,2.02256 2.37403,2.88011 2.85008,10.05768 0.93106,14.03772 -0.779,1.61562 -2.32281,3.03595 -3.77177,3.47006 -1.15981,0.34749 -3.51442,0.36983 -4.5978,0.0436 z m 4.58737,-2.44853 c 0.53914,-0.35701 1.19811,-1.19323 1.64618,-2.08898 l 0.74715,-1.49366 0.14948,-2.50534 c 0.34818,-5.83612 -1.45454,-9.19171 -4.93806,-9.19171 -2.10227,0 -3.67864,1.38937 -4.40285,3.88055 -0.3177,1.09286 -0.40214,2.2841 -0.333,4.69794 l 0.0926,3.23384 0.79375,1.54 c 0.9572,1.85712 2.01031,2.52267 3.99164,2.52267 0.96145,0 1.61474,-0.17261 2.25309,-0.59531 z m 20.46347,2.08394 c -1.63808,-0.76278 -3.11788,-2.43656 -3.7467,-4.23784 l -0.47192,-1.35183 0.009,-3.83646 0.009,-3.83646 0.58066,-1.4552 c 0.79391,-1.98963 2.01791,-3.38874 3.61536,-4.13259 3.26867,-1.52205 6.53623,-0.17448 7.80599,3.21925 0.446,1.19204 1.0477,4.93572 1.07172,6.66802 l 0.005,0.33073 h -5.45576 -5.45576 l 0.11032,1.52518 c 0.13892,1.92049 1.0518,3.83299 2.27488,4.76587 l 0.9445,0.72041 h 2.00497 2.00497 l 1.13263,-0.59531 c 0.62295,-0.32742 1.19502,-0.59531 1.27127,-0.59531 0.0763,0 0.10235,0.56277 0.058,1.2506 l -0.0807,1.25061 -1.19062,0.4548 c -0.72668,0.27757 -1.96388,0.45939 -3.175,0.4666 l -1.98438,0.0118 -1.33763,-0.62288 z m 6.33556,-12.00582 c -0.41213,-3.4227 -1.83501,-5.35781 -3.93959,-5.35781 -2.13297,0 -4.36563,2.99838 -4.36563,5.86289 v 0.7517 h 4.22827 4.22828 z m 34.59355,12.28744 c -3.32393,-1.26202 -5.06265,-5.265 -4.72743,-10.88376 0.31957,-5.35638 2.52679,-8.40111 6.37841,-8.79864 3.27516,-0.33802 5.77643,1.12276 7.1994,4.20456 l 0.77064,1.66905 -0.0107,4.10104 -0.0107,4.10104 -0.4632,1.19063 c -0.7055,1.81345 -1.73598,3.13602 -3.03787,3.89898 l -1.17829,0.69053 -2.01527,0.0822 c -1.19685,0.0488 -2.37663,-0.055 -2.90505,-0.25562 z m 5.06259,-2.44044 c 0.39622,-0.28624 1.04818,-1.17528 1.44879,-1.97564 l 0.72839,-1.45521 0.0926,-3.21465 c 0.0694,-2.40957 -0.0152,-3.58544 -0.33778,-4.69517 -0.78043,-2.6846 -2.62601,-4.07158 -5.05372,-3.79794 -1.57167,0.17714 -2.60927,1.00685 -3.48219,2.78446 l -0.74394,1.51497 v 3.57187 3.57188 l 0.79375,1.5875 c 0.497,0.99398 1.13997,1.81873 1.7198,2.20599 l 0.92604,0.61849 1.59391,-0.0981 c 1.03867,-0.0639 1.84486,-0.27936 2.31432,-0.61849 z m 11.96677,2.41336 c -1.02269,-0.45454 -1.83866,-1.35056 -2.43402,-2.67282 l -0.47489,-1.05472 -0.0846,-7.87136 -0.0846,-7.87135 h 1.20831 1.20831 v 7.56678 7.56679 l 0.43255,0.91153 c 0.54026,1.13851 1.56165,1.68198 3.1611,1.68198 1.69544,0 2.81988,-0.74986 3.66373,-2.44325 l 0.68012,-1.36481 v -6.95951 -6.95951 h 1.19062 1.19063 v 9.80555 9.80556 l -0.99219,-0.0821 -0.99219,-0.0821 -0.0822,-1.29458 -0.0822,-1.29458 -0.63573,0.93556 c -0.88271,1.29902 -2.54921,2.05305 -4.50895,2.04012 -0.86356,-0.006 -1.9273,-0.16911 -2.36386,-0.36314 z m 31.65611,0.0904 c -2.11896,-0.8487 -3.47519,-3.01334 -3.46959,-5.53774 0.006,-2.57938 1.11064,-4.22923 3.56678,-5.32584 l 1.31962,-0.58917 3.01001,-0.11978 3.01001,-0.11978 -0.13093,-1.63103 c -0.24054,-2.99666 -1.53136,-4.38241 -4.08393,-4.38425 l -1.36984,-0.001 -1.72169,0.89741 -1.7217,0.89741 -0.14962,-0.38988 c -0.0823,-0.21437 -0.14961,-0.721 -0.14961,-1.12579 v -0.73598 l 1.61614,-0.72528 c 3.91091,-1.75511 7.78518,-0.81923 9.16011,2.21274 l 0.43254,0.95382 0.0863,5.02708 c 0.0474,2.7649 0.11507,6.30715 0.1503,7.87168 l 0.064,2.8446 -0.99219,-2.7e-4 -0.99219,-3.8e-4 -0.001,-1.38907 -0.001,-1.38906 -0.922,1.00388 c -0.5071,0.55213 -1.42927,1.23413 -2.04926,1.51554 -1.20993,0.5492 -3.5838,0.67153 -4.66072,0.2402 z m 5.31656,-2.68906 c 1.3197,-1.00658 1.86379,-2.33808 2.00196,-4.89921 l 0.11777,-2.18281 h -1.87224 c -2.75487,0 -4.45503,0.4404 -5.54053,1.43519 l -0.92379,0.84659 -0.1316,1.36959 c -0.15854,1.64989 0.23683,2.72477 1.34529,3.65748 l 0.81236,0.68356 1.63511,-0.10412 1.6351,-0.10411 z m 49.413788,2.72473 c -2.273856,-0.69419 -4.386418,-2.53931 -5.317618,-4.64444 -1.67214,-3.78011 -0.9991,-9.47466 1.508305,-12.76206 1.540193,-2.01927 4.738159,-3.05804 7.591161,-2.46575 3.63429,0.75448 5.63028,3.75872 5.939393,8.93958 l 0.146077,2.44884 h -5.727409 -5.727409 v 0.86998 c 0,1.13628 0.993986,3.05681 1.938125,3.74474 l 0.747528,0.54465 2.559764,-0.009 2.559791,-0.009 1.113949,-0.58608 c 0.612669,-0.32234 1.178216,-0.58608 1.256771,-0.58608 0.07855,0 0.142822,0.82866 0.142822,1.84145 v 1.84146 l -1.747653,0.53979 c -1.802024,0.55659 -5.59763,0.7155 -6.983597,0.29238 z m 5.149717,-12.9156 c -0.36949,-2.66289 -1.982258,-4.30774 -3.826563,-3.90266 -1.553659,0.34124 -2.910654,2.42175 -2.910654,4.46252 v 0.69691 h 3.455802 3.455776 z m 64.171117,12.74182 c -2.320026,-1.00336 -3.649028,-3.44382 -3.334173,-6.12264 0.205131,-1.74527 0.459687,-2.27971 1.707673,-3.585 1.242166,-1.29919 3.535707,-2.03259 6.984313,-2.23335 l 2.579687,-0.15018 -0.004,-0.95371 c -0.0053,-1.27552 -0.475271,-2.13115 -1.587473,-2.88972 l -0.922179,-0.62897 -1.672273,0.12904 c -1.110059,0.0856 -2.194004,0.38764 -3.224265,0.89828 l -1.551993,0.76925 -0.145574,-0.54184 c -0.08004,-0.29801 -0.147161,-1.15598 -0.149145,-1.90661 l -0.0037,-1.36477 1.653645,-0.56286 c 2.375641,-0.8086 5.219991,-0.97837 7.327239,-0.43733 2.124313,0.54543 3.356822,1.46588 4.070006,3.03958 l 0.552609,1.21932 0.07879,3.96875 c 0.04334,2.18281 0.10967,5.66975 0.147452,7.74876 l 0.06866,3.78 -2.120556,-0.0758 -2.120556,-0.0758 -0.132291,-1.26086 -0.132292,-1.26087 -0.708448,0.892 c -1.4605,1.83889 -5.024332,2.61611 -7.361344,1.60541 z m 6.642709,-3.75734 c 0.875929,-0.98035 1.291325,-2.33632 1.293309,-4.22198 l 0.0026,-1.38906 -1.521354,0.002 c -2.027529,0.002 -3.355658,0.40106 -4.379727,1.31607 l -0.845794,0.75572 v 1.49861 1.49862 l 0.897282,0.80171 0.897255,0.80171 1.462272,-0.12127 1.4623,-0.12126 0.732975,-0.82034 z m 42.435225,3.6851 c -2.250732,-1.02249 -3.496787,-3.36271 -3.221461,-6.05023 0.379253,-3.70212 3.015906,-5.48818 8.581549,-5.81314 l 2.711979,-0.15834 v -0.95232 c 0,-1.22007 -0.799359,-2.52511 -1.888675,-3.08842 -1.216449,-0.62905 -3.56452,-0.37099 -5.541804,0.60904 l -1.545908,0.76622 -0.141525,-0.36883 c -0.07882,-0.20285 -0.142505,-1.06253 -0.142505,-1.91039 v -1.54157 l 1.653646,-0.56286 c 4.68794,-1.59564 9.820884,-0.58985 11.13626,2.18214 0.777107,1.63759 0.954008,3.41299 1.027774,10.31437 l 0.07294,6.82287 -2.116667,-0.076 -2.116666,-0.076 -0.08136,-1.12448 c -0.09229,-1.27552 -0.335809,-1.40443 -0.932576,-0.49364 -0.22733,0.34695 -1.038305,0.94227 -1.802183,1.32291 l -1.388825,0.69209 -1.601682,-0.006 c -0.973163,-0.004 -2.017897,-0.19489 -2.662316,-0.48763 z m 6.777275,-3.6851 c 0.87593,-0.98035 1.291326,-2.33632 1.29331,-4.22198 l 0.0026,-1.38906 -1.521354,0.002 c -2.125372,0.002 -3.468608,0.43764 -4.485508,1.45455 l -0.873469,0.8722 v 1.24354 1.24354 l 0.931863,0.93187 0.931862,0.93186 1.493838,-0.12388 1.493837,-0.12388 z m 13.307166,3.67439 c -0.596476,-0.27088 -1.354878,-0.87221 -1.685316,-1.33627 -1.196261,-1.67998 -1.331225,-2.77289 -1.331225,-10.77964 v -7.50888 l 2.315104,0.0764 2.315105,0.0764 0.132291,7.14375 c 0.08948,4.8322 0.234633,7.32202 0.448575,7.69467 0.549487,0.95713 1.125141,1.25289 2.401067,1.2336 l 1.239626,-0.0187 0.717153,-0.80265 c 1.125326,-1.25946 1.275927,-2.33208 1.277514,-9.09908 l 0.0015,-6.28385 h 2.38125 2.38125 v 9.93257 9.93257 l -2.182812,-0.0768 -2.182813,-0.0769 -0.132292,-1.32291 -0.132291,-1.32292 -0.74885,0.97887 c -1.505109,1.96744 -4.765173,2.67219 -7.214818,1.55969 z m 21.056495,-0.10166 c -0.747316,-0.39519 -1.336702,-0.97011 -1.695239,-1.65365 l -0.549671,-1.04783 -0.07908,-6.54844 -0.07908,-6.54844 h -1.57457 -1.574562 v -1.85208 -1.85208 h 1.576361 1.576387 l 0.07726,-2.01006 0.07728,-2.01005 1.984375,-0.63224 c 1.091406,-0.34773 2.133203,-0.63383 2.315104,-0.63578 0.242781,-0.003 0.330729,0.70013 0.330729,2.64229 v 2.64584 h 1.984375 1.984375 v 1.85208 1.85208 H 67.904935 65.92056 v 5.76196 5.76197 l 0.404468,0.57747 c 0.490115,0.69971 1.851555,0.99829 2.839429,0.6227 l 0.724853,-0.27558 v 1.68736 1.68736 l -0.833226,0.29046 c -0.458285,0.15976 -1.630177,0.29047 -2.604214,0.29047 H 64.680881 Z M -392.86695,169.1211 v -13.36146 h 1.19063 1.19062 v 5.82083 5.82084 h 5.29167 5.29167 v -5.82084 -5.82083 h 1.19062 1.19063 v 13.36146 13.36146 h -1.19063 -1.19062 v -6.35 -6.35 h -5.29167 -5.29167 v 6.35 6.35 h -1.19062 -1.19063 z m 92.60417,0 v -13.36146 h 5.68854 5.68854 v 1.05833 1.05834 h -4.49791 -4.49792 v 4.7625 4.7625 h 4.23333 4.23334 v 1.19062 1.19063 h -4.23334 -4.23333 v 5.29166 5.29167 h 4.63021 4.63021 v 1.05833 1.05834 h -5.82084 -5.82083 z m 48.94792,-1.05834 v -14.41979 h 1.05833 1.05834 v 14.41979 14.4198 h -1.05834 -1.05833 z m 33.60208,1.05834 v -13.36146 h 1.19063 1.19062 v 12.30312 12.30313 h 4.36563 4.36562 v 1.05833 1.05834 h -5.55625 -5.55625 z m 53.58775,13.04466 c -0.0642,-0.18957 -1.35551,-4.60697 -2.86953,-9.81647 l -2.75278,-9.4718 1.21427,0.0791 1.21427,0.0791 2.25353,8.24873 c 1.23945,4.5368 2.31342,8.30746 2.38661,8.37925 0.0732,0.0718 1.19546,-3.6699 2.49393,-8.31487 l 2.36086,-8.4454 h 1.12276 1.12276 l -0.24499,0.85989 c -0.13474,0.47295 -1.41063,4.84849 -2.83532,9.72344 l -2.59033,8.86354 -1.37965,0.0801 c -0.95567,0.0555 -1.41552,-0.0258 -1.49639,-0.26458 z m 28.1685,-9.47279 v -9.78958 h 1.05834 1.05833 v 9.78958 9.78959 h -1.05833 -1.05834 z m 7.67292,1.22755 c 0,-4.70911 -0.0757,-9.11442 -0.16825,-9.78958 l -0.16826,-1.22755 h 1.08518 1.08518 l 0.17209,1.29719 0.17208,1.29719 0.82696,-0.94185 c 2.77548,-3.16111 8.0699,-2.17583 9.14678,1.70218 0.16777,0.60417 0.2813,4.07152 0.28218,8.61768 l 0.003,7.60678 h -1.05833 -1.05834 v -7.41684 -7.41683 l -0.38094,-0.91175 c -1.06021,-2.53744 -4.89649,-2.63998 -6.59445,-0.17625 -1.03979,1.50867 -1.21327,2.87896 -1.22023,9.63781 l -0.008,6.28386 h -1.05834 -1.05833 z m 45.772918,-1.35984 v -9.92187 h 2.083594 2.083593 l 0.165365,0.82682 c 0.09096,0.45475 0.165365,1.1092 0.165365,1.45433 v 0.62751 l 1.25677,-1.29562 c 3.153675,-3.25116 8.176896,-2.14315 9.431126,2.08029 l 0.424604,1.42979 v 7.36031 7.36032 h -2.38125 -2.38125 v -6.90533 -6.90533 l -0.409628,-0.86322 c -0.957766,-2.01832 -3.929354,-1.90568 -5.076005,0.19242 l -0.467492,0.85541 -0.08242,6.81302 -0.08239,6.81303 h -2.365005 -2.364978 z m 30.691667,-3.43958 v -13.36146 h 2.38125 2.38125 v 5.42396 5.42396 h 4.101042 4.101041 v -5.42396 -5.42396 h 2.38125 2.381251 v 13.36146 13.36146 h -2.376197 -2.37617 l -0.07123,-5.88698 -0.0712,-5.88698 h -3.96875 -3.96875 l -0.0712,5.88698 -0.07123,5.88698 h -2.37617 -2.376196 z m 42.5979172,3.42928 v -9.93218 l 2.3151042,0.0764 2.3151042,0.0764 0.069374,9.85573 0.069347,9.85573 h -2.3844515 -2.3844779 z m 9.52500013,1.63661 c 0,-4.56256 -0.076491,-9.0274 -0.16999479,-9.92187 l -0.16996834,-1.62631 h 2.286635 2.2866615 l 0.00794,1.52135 0.00794,1.52135 0.9842765,-1.10255 c 1.3912321,-1.55839 2.4924809,-2.05479 4.5561778,-2.05375 3.169814,0.002 4.915906,1.57579 5.535851,4.99083 0.156739,0.86347 0.284983,4.58418 0.284983,8.26823 v 6.69829 h -2.38125 -2.38125 l -0.01164,-6.28386 c -0.01323,-7.23694 -0.162243,-8.38673 -1.2026637,-9.28166 l -0.7347215,-0.63197 -1.1529483,0.12995 c -1.3134975,0.14805 -2.1029878,0.74095 -2.6231851,1.96997 l -0.3603625,0.8514 v 6.62308 6.62309 h -2.38125 -2.38125003 v -8.29557 z M -9.4856911,156.68568 v -2.24896 h 2.5135417 2.5135417 v 2.24896 2.24896 h -2.5135417 -2.5135417 z m -126.7354189,0.26458 v -1.71979 h 1.32292 1.32291 v 1.71979 1.7198 h -1.32291 -1.32292 z m -159.54375,-2.38797 c 0,-0.0765 0.62508,-1.32419 1.38906,-2.77272 l 1.38906,-2.6337 1.40213,-0.005 1.40213,-0.005 -1.91547,2.77813 -1.91546,2.77812 h -0.87573 c -0.48165,-1e-5 -0.87572,-0.0626 -0.87572,-0.13903 z M 21.735143,132.46412 C 15.099049,131.77603 8.2044831,128.82022 3.9721022,124.84878 0.54892296,121.63666 -1.2644783,118.24561 -2.41912,112.89714 l -0.542634,-2.51354 -0.00556,-4.7625 -0.00556,-4.7625 0.548058,-2.526586 c 1.65057665,-7.609406 5.251503,-11.933415 13.035889,-15.653628 4.030636,-1.926262 9.664858,-3.622392 13.902134,-4.185098 1.164167,-0.154601 3.545416,-0.50941 5.291667,-0.788466 1.74625,-0.279056 4.425156,-0.702111 5.953125,-0.94012 6.32243,-0.984835 10.545709,-3.004854 11.921834,-5.702284 1.007771,-1.975392 0.538666,-5.037021 -1.021794,-6.668709 -1.159377,-1.212276 -2.172202,-1.704901 -5.093599,-2.477463 l -2.763732,-0.730864 -4.7625,-0.0071 -4.7625,-0.0071 -1.984375,0.6119 c -2.467478,0.760872 -4.504928,2.117214 -5.549636,3.694467 -0.440213,0.664572 -0.800364,1.306965 -0.800364,1.427535 0,0.120573 -4.881563,0.219223 -10.847917,0.219223 H -0.75449393 v -0.495241 c 0,-0.272381 0.28516792,-1.619404 0.63370355,-2.993385 C 1.8166211,55.998064 7.5379447,49.57936 15.384402,46.240387 c 5.734685,-2.44033 13.576406,-3.465202 22.471777,-2.936953 13.492798,0.801266 21.903558,4.00011 27.15305,10.327035 1.459018,1.758482 3.332163,5.540695 3.996584,8.069792 l 0.486569,1.852083 -0.03225,29.925741 c -0.01773,16.459155 -0.119406,31.669395 -0.225927,33.800525 l -0.193649,3.87478 H 58.881585 48.722643 v -1.87413 c 0,-1.03078 -0.0893,-1.83347 -0.198437,-1.78377 -0.109141,0.0497 -1.057725,0.53541 -2.107989,1.07935 -4.671959,2.41963 -10.77341,3.69626 -19.124824,4.00156 -1.819011,0.0665 -4.319323,0.016 -5.55625,-0.11228 z m 13.448903,-17.98438 c 4.975622,-1.18839 9.065101,-4.35027 11.286464,-8.72635 1.593823,-3.13984 2.251498,-7.301586 2.251921,-14.249663 l 2.12e-4,-3.798621 -0.330729,0.142505 c -3.238447,1.395381 -4.511543,1.871258 -7.077604,2.645598 -1.67349,0.504994 -5.543021,1.47674 -8.598959,2.159439 -5.931217,1.325031 -8.515932,2.236761 -10.950998,3.862837 -2.42824,1.621531 -3.733377,4.619705 -3.733377,8.576445 0,5.66708 2.860701,9.01919 8.466667,9.92111 2.040149,0.32822 6.130845,0.0771 8.686403,-0.5333 z M -392.86695,80.918668 c 0,-32.63764 0.0934,-50.727174 0.26661,-51.640538 0.75537,-3.983019 3.67501,-7.348669 7.60922,-8.771625 l 1.51688,-0.548634 6.81302,-0.128409 6.81302,-0.128408 v 20.801167 20.801168 h 22.88646 22.88646 V 40.533597 19.763805 h 11.64167 11.64166 v 55.694792 55.694793 h -11.64166 -11.64167 V 106.41485 81.676305 h -22.88646 -22.88646 v 24.738545 24.73854 h -11.50937 -11.50938 z m 104.95224,50.059182 c -0.29732,-0.29732 -0.19982,-98.945768 0.0998,-101.027586 0.77048,-5.352597 4.73278,-9.216217 10.18229,-9.928703 1.39457,-0.182331 13.66337,-0.250229 36.23959,-0.200558 l 34.13125,0.07509 v 9.525 9.525 l -29.03802,0.06731 -29.03802,0.06731 v 11.905084 11.905086 h 21.69584 21.69583 l -0.005,3.63802 c -0.01,6.698377 -0.80223,9.320168 -3.6341,12.02132 -1.74926,1.668503 -3.07879,2.423862 -5.27172,2.995044 l -1.51887,0.395616 h -16.48087 -16.48087 v 14.154044 14.154033 l 29.03802,0.0673 29.03802,0.0673 v 10.31875 10.31875 l -40.23787,0.067 c -22.13083,0.0368 -40.31762,-0.0128 -40.4151,-0.11024 z m 92.9561,-55.519253 V 19.763805 h 6.16212 6.16212 l 1.57694,0.408215 c 4.36801,1.13072 6.87986,3.5932 8.48992,8.323035 l 0.49536,1.455209 -0.0303,40.150521 -0.0303,40.150525 h 27.08398 27.08398 v 10.45104 10.45104 h -38.49687 -38.49688 z m 88.9,5.460071 c 0,-32.63764 0.0934,-50.727174 0.26662,-51.640538 0.91411,-4.820135 4.94446,-8.61155 9.828267,-9.245634 1.069023,-0.138794 4.414203,-0.256028 7.43376,-0.260521 l 5.490104,-0.0082 V 40.533597 61.303389 H -60.1534 -37.266942 V 40.533597 19.763805 h 11.641667 11.641667 V 75.458597 131.15339 H -25.625275 -37.266942 V 106.41485 81.676305 H -60.1534 -83.039859 v 24.738545 24.73854 h -11.509375 -11.509376 z"
         id="path9486" />
      <path
         style="fill:#009992;stroke-width:0.264583"
         d="m -369.73462,182.24633 c -3.49893,-1.58917 -4.33039,-6.67773 -1.52626,-9.34074 1.37423,-1.30506 3.08264,-1.85511 6.22438,-2.00402 l 2.86122,-0.13562 -0.006,-1.48388 c -0.007,-1.88984 -0.74317,-3.55929 -1.81234,-4.11218 -0.44125,-0.22818 -1.45263,-0.41442 -2.25052,-0.41442 h -1.44912 l -1.73902,0.90644 -1.73901,0.90644 -0.004,-0.57571 c -0.002,-0.31664 -0.0703,-0.82421 -0.15189,-1.12794 l -0.14827,-0.55223 1.57661,-0.68376 c 3.17441,-1.3767 6.12673,-1.18439 8.01566,0.52215 1.62793,1.47074 1.79469,2.44468 1.8816,10.98973 l 0.0747,7.34241 -0.83159,-2.3e-4 c -0.93555,-2.4e-4 -1.15214,-0.33952 -1.15405,-1.80779 l -0.001,-0.97055 -0.922,1.00388 c -1.77646,1.93423 -4.62767,2.56982 -6.8994,1.53802 z m 5.34355,-2.28885 c 0.74882,-0.43466 1.26798,-1.00903 1.65364,-1.82949 l 0.56215,-1.19592 v -2.15423 -2.15423 l -2.74279,0.12198 -2.7428,0.12199 -0.86757,0.50801 c -1.26434,0.74034 -1.90616,1.75045 -2.04761,3.22261 -0.3377,3.51453 2.89381,5.26968 6.18498,3.35928 z m 12.66683,2.40796 c -1.25912,-0.46025 -2.32062,-1.6352 -2.73904,-3.03177 -0.19836,-0.66206 -0.30367,-3.68673 -0.30367,-8.72192 v -7.70836 h 1.05834 1.05833 v 7.55116 7.55117 l 0.51522,1.00992 c 1.21558,2.38272 4.88762,2.25931 6.55872,-0.22043 0.99586,-1.47775 1.12514,-2.54988 1.12667,-9.34338 l 0.001,-6.54844 h 1.05834 1.05833 v 9.78958 9.78959 h -0.92604 -0.92604 v -1.32292 c 0,-0.72761 -0.0893,-1.32144 -0.19844,-1.31964 -0.10914,0.002 -0.45501,0.39958 -0.7686,0.88395 -1.08633,1.67798 -4.28717,2.47726 -6.57359,1.64149 z m 17.6203,0.0471 c -0.34977,-0.17976 -0.88556,-0.66274 -1.19063,-1.0733 l -0.55467,-0.74648 -0.0774,-7.78634 -0.0774,-7.78633 h -1.44392 -1.44392 v -1.05834 -1.05833 h 1.45521 1.45521 v -1.95569 -1.95569 l 0.63688,-0.15985 c 0.35028,-0.0879 0.82653,-0.23262 1.05833,-0.32157 l 0.42146,-0.16173 v 2.27726 2.27727 h 1.98437 1.98438 v 1.05833 1.05834 h -1.98438 -1.98437 v 6.99901 c 0,4.70166 0.0996,7.21769 0.30356,7.66526 0.38886,0.85345 1.66579,1.29192 2.80823,0.96427 l 0.85696,-0.24577 v 1.01155 c 0,0.67834 -0.13787,1.06447 -0.41852,1.17216 -0.72312,0.27749 -3.12541,0.16716 -3.78931,-0.17403 z m 12.14362,0.1045 c -1.36089,-0.44901 -2.35307,-1.11004 -3.26467,-2.17503 -1.40993,-1.64719 -1.80958,-3.05682 -1.95766,-6.90494 l -0.12917,-3.35697 0.55228,-1.81829 c 1.1921,-3.9247 3.85372,-5.94846 7.21527,-5.48613 3.21236,0.44181 4.84979,3.0536 5.18082,8.26368 l 0.1555,2.44739 h -5.49879 -5.4988 l 0.16852,1.22948 c 0.4054,2.95773 1.35821,4.62573 3.18383,5.57364 1.2878,0.66867 3.49337,0.5543 5.12617,-0.26581 l 1.38299,-0.69464 v 1.25399 1.25399 l -0.85989,0.34131 c -1.04909,0.41639 -4.84383,0.63942 -5.7564,0.33833 z m 5.41377,-12.27143 c -0.28924,-2.16203 -0.72123,-3.36818 -1.54947,-4.32631 l -0.83469,-0.9656 -1.31552,-0.11383 -1.31551,-0.11382 -0.8335,0.52395 c -0.96096,0.60408 -2.34398,3.24897 -2.6122,4.99561 l -0.17269,1.12448 h 4.39201 4.39201 z m 37.34863,12.06785 c -0.90228,-0.27705 -1.70867,-0.81309 -2.67129,-1.77571 -1.7654,-1.7654 -2.52604,-3.68161 -2.71657,-6.84359 -0.30922,-5.13171 1.37266,-8.85419 4.67743,-10.35252 l 1.20911,-0.54819 2.11667,0.011 c 1.16417,0.006 2.44409,0.14692 2.84427,0.31302 l 0.72761,0.30201 v 1.20397 1.20397 l -0.8599,-0.45086 c -0.53719,-0.28166 -1.50531,-0.45797 -2.57969,-0.46981 l -1.71979,-0.019 -1.24119,0.72962 -1.24118,0.72963 -0.84366,1.71372 -0.84366,1.71371 0.0173,2.45146 c 0.0291,4.12161 1.1373,6.52069 3.57281,7.73435 1.54733,0.77107 3.16997,0.86632 4.59747,0.26987 0.52699,-0.22019 0.98764,-0.36902 1.02367,-0.33073 0.036,0.0383 0.10705,0.54069 0.15782,1.11643 l 0.0923,1.04682 -1.05833,0.32191 c -1.44098,0.43831 -3.70164,0.40775 -5.26118,-0.0711 z m 13.55289,0.0172 c -1.65743,-0.51015 -3.39843,-2.44043 -4.08265,-4.52652 l -0.50489,-1.53931 0.01,-3.70417 0.01,-3.70417 0.61248,-1.54304 c 1.06714,-2.68849 2.80248,-4.15873 5.36153,-4.54248 1.69501,-0.25419 3.90692,0.26361 5.20545,1.21856 2.8163,2.07112 3.99242,8.30182 2.53931,13.45239 -1.20894,4.28511 -4.82908,6.21906 -9.15115,4.88873 z m 4.58391,-2.11948 c 1.06097,-0.54865 1.96579,-1.88482 2.47828,-3.65975 l 0.45202,-1.56549 -0.1134,-2.96256 -0.11339,-2.96256 -0.77811,-1.55737 c -0.98197,-1.96541 -2.08422,-2.748 -3.87048,-2.748 -1.86025,0 -3.13034,0.73595 -3.98727,2.31039 -1.78739,3.28403 -1.50896,9.78218 0.52223,12.18815 1.30587,1.54681 3.51431,1.93754 5.41012,0.95718 z m 21.7848,2.28853 c -3.80217,-0.92563 -5.65747,-4.61822 -5.35986,-10.66773 0.20937,-4.25601 1.43181,-6.90949 3.83085,-8.31542 l 1.23224,-0.72214 1.73588,0.006 c 3.89835,0.0133 5.71792,2.45964 6.02979,8.10665 l 0.14247,2.57969 h -5.46844 -5.46845 l 0.17232,1.38906 c 0.37571,3.02856 1.76288,4.99886 3.97145,5.6409 l 1.36213,0.39598 1.29106,-0.28799 c 0.71008,-0.1584 1.66911,-0.51028 2.13118,-0.78197 l 0.84012,-0.49396 0.18324,1.08463 0.18326,1.08464 -0.45719,0.3343 c -1.02538,0.74978 -4.48372,1.10226 -6.35205,0.64742 z m 5.29964,-12.65103 c -0.24256,-1.99156 -0.91627,-3.4857 -1.97238,-4.37436 l -0.85432,-0.71887 h -1.16956 -1.16956 l -1.04778,0.94661 c -1.05447,0.95265 -1.87284,2.66278 -2.23755,4.67579 l -0.17976,0.99219 h 4.4081 4.4081 z m 34.72099,12.52196 c -2.18587,-0.78015 -3.38586,-2.11451 -4.23447,-4.70865 l -0.5436,-1.66175 -0.0191,-3.175 c -0.022,-3.6581 0.39184,-5.41558 1.74979,-7.43004 0.57878,-0.85858 1.29253,-1.49897 2.17129,-1.9481 l 1.30909,-0.66906 1.9982,0.0104 1.99821,0.0104 1.08338,0.56583 c 2.57182,1.3432 3.81124,3.9179 4.01373,8.3379 0.20648,4.50721 -0.52128,7.16137 -2.54086,9.2666 -1.54557,1.61111 -4.652,2.23431 -6.98562,1.40143 z m 4.59781,-2.15575 c 2.10241,-1.08721 3.2974,-5.58667 2.62857,-9.89736 -0.57553,-3.70935 -2.23327,-5.56208 -4.97672,-5.56208 -1.81658,0 -2.90323,0.773 -3.90537,2.77813 l -0.79342,1.5875 -0.0948,2.96826 -0.0948,2.96826 0.54591,1.79729 c 1.04257,3.43243 3.83684,4.83572 6.69057,3.36 z m 12.26698,2.03462 c -1.25884,-0.57806 -1.82296,-1.16811 -2.37116,-2.48014 l -0.40697,-0.974 v -7.946 -7.946 h 1.05834 1.05833 v 7.54912 7.54913 l 0.37603,0.89997 c 0.69077,1.65324 3.2478,2.33676 5.1152,1.36734 1.06992,-0.55543 2.07059,-2.04283 2.42681,-3.60723 0.14911,-0.65484 0.27402,-4.01836 0.27757,-7.47448 l 0.006,-6.28385 h 1.05834 1.05833 v 9.78958 9.78959 h -0.91693 -0.91693 l -0.17208,-1.29719 -0.17207,-1.29719 -0.82696,0.94185 c -1.60665,1.82987 -4.44139,2.43476 -6.65232,1.4195 z m 31.48315,0.004 c -2.18933,-0.9946 -3.45735,-3.22242 -3.25092,-5.71164 0.31327,-3.77771 3.21491,-5.70118 8.60044,-5.70118 h 2.19337 v -1.22608 c 0,-1.72287 -0.4793,-3.12506 -1.355,-3.96404 l -0.74996,-0.7185 -1.43141,-0.1187 c -1.57517,-0.13063 -2.96629,0.23227 -4.43732,1.15756 l -0.96223,0.60524 -0.16225,-0.81123 c -0.27094,-1.35468 -0.21481,-1.44319 1.35911,-2.14322 1.97704,-0.87932 3.65396,-1.10866 5.38772,-0.73684 1.79026,0.38395 3.06184,1.36259 3.7681,2.90003 l 0.56013,1.21932 0.0937,7.73906 0.0937,7.73907 h -0.94985 -0.94986 v -1.32292 c 0,-0.72761 -0.0439,-1.32292 -0.0975,-1.32292 -0.0536,0 -0.61956,0.52208 -1.25765,1.16017 -1.74832,1.74832 -4.28345,2.24212 -6.45235,1.25681 z m 4.93169,-2.04596 c 0.98274,-0.49697 2.01426,-1.80412 2.33497,-2.95892 0.1503,-0.54118 0.27394,-1.80115 0.27475,-2.79992 l 0.002,-1.81594 -2.71198,0.11048 -2.71198,0.11048 -1.07102,0.55909 c -0.60799,0.31738 -1.28146,0.94985 -1.55778,1.46293 l -0.48675,0.90384 0.12482,1.50516 0.12482,1.50516 0.76156,0.7949 c 1.23691,1.29105 3.12315,1.52994 4.91711,0.62274 z m 49.496691,2.05516 c -3.981401,-1.42333 -5.790091,-4.72503 -5.552121,-10.13514 0.15057,-3.42284 0.83336,-5.34324 2.56008,-7.20026 1.627426,-1.75027 3.075649,-2.37434 5.513176,-2.37577 l 1.91389,-10e-4 1.525693,0.77765 c 2.57982,1.31496 3.87649,3.84827 4.213437,8.23186 l 0.168434,2.19118 h -5.76035 -5.76035 l 0.121603,1.46618 c 0.128958,1.55499 0.640159,2.47366 1.898756,3.41226 l 0.73152,0.54552 2.559447,-0.003 2.55942,-0.003 1.093497,-0.5815 1.093496,-0.5815 0.163274,0.81639 c 0.0898,0.44902 0.163275,1.27315 0.163275,1.83141 v 1.01501 l -1.389063,0.43232 c -0.763984,0.23777 -2.520156,0.48425 -3.902604,0.54771 l -2.513542,0.1154 -1.400968,-0.50084 z m 5.679625,-11.57701 c 0.283977,-0.74001 -0.455851,-3.29152 -1.19388,-4.11743 -2.082535,-2.33056 -5.573844,-0.20018 -5.592498,3.41254 l -0.0058,1.12446 h 3.315599 3.3156 l 0.160999,-0.41958 z m 64.513011,11.74201 c -2.296028,-0.80259 -3.661066,-2.80349 -3.663024,-5.36931 -0.0026,-2.89414 1.038807,-4.56133 3.530732,-5.65466 1.244362,-0.54596 4.495986,-1.09222 6.501448,-1.09222 h 1.171469 v -1.08365 c 0,-1.38931 -0.661008,-2.49723 -1.817238,-3.04589 -1.292833,-0.6135 -3.779758,-0.37696 -5.588502,0.53153 -0.769329,0.3864 -1.435841,0.66546 -1.481191,0.62012 -0.04532,-0.0453 -0.162348,-0.86256 -0.260032,-1.81606 l -0.177615,-1.73364 1.9422,-0.6245 1.942174,-0.6245 2.569607,0.0119 2.569607,0.0119 1.473756,0.72105 c 1.731063,0.84692 2.655014,2.18082 3.055911,4.41181 0.141261,0.78614 0.289401,4.43578 0.329194,8.11031 l 0.07234,6.68096 -2.02221,-2.3e-4 -2.02221,-2.4e-4 -0.160603,-0.41852 c -0.08834,-0.23017 -0.160602,-0.85027 -0.160602,-1.378 v -0.95949 l -1.124479,1.1009 c -0.618463,0.6055 -1.567127,1.28513 -2.108173,1.5103 -1.109769,0.46187 -3.381058,0.50666 -4.572556,0.0902 z m 5.678011,-3.28851 c 1.211607,-0.71572 1.686719,-1.8308 1.814089,-4.2578 l 0.114883,-2.18863 -0.628492,0.002 c -1.230471,0.003 -3.676544,0.50535 -4.604226,0.94555 -0.518292,0.24596 -1.115721,0.78241 -1.3276,1.19212 -0.788352,1.52454 -0.248682,3.80751 1.048888,4.43714 0.858811,0.41672 2.774685,0.34725 3.582458,-0.12991 z m 43.448738,3.30665 c -0.483738,-0.13936 -1.394566,-0.76842 -2.024062,-1.39793 l -1.144561,-1.14457 -0.321046,-1.4345 -0.321019,-1.43451 0.318717,-1.5353 c 0.389758,-1.87747 1.567207,-3.29649 3.381508,-4.07528 1.318498,-0.56598 4.559538,-1.11224 6.599026,-1.11224 h 1.20515 l -0.129487,-1.34749 -0.129487,-1.3475 -0.835977,-0.83532 -0.836004,-0.83531 -2.044753,0.008 -2.044753,0.008 -1.444996,0.70813 c -0.794755,0.38947 -1.492541,0.6606 -1.550643,0.6025 -0.0581,-0.0581 -0.166714,-0.86654 -0.241353,-1.79654 l -0.135731,-1.69091 1.81864,-0.55628 c 2.485575,-0.76027 4.241773,-0.92075 6.368917,-0.58196 2.579185,0.41077 3.839687,1.23235 4.752182,3.0974 l 0.742738,1.5181 0.07429,5.42757 c 0.04085,2.98516 0.102394,6.41417 0.13679,7.62003 l 0.06249,2.19247 -2.116667,-0.0758 -2.116666,-0.0758 -0.132292,-1.27463 -0.132292,-1.27462 -0.926041,0.9762 c -0.509323,0.53692 -1.402292,1.19718 -1.984375,1.46725 -1.151097,0.53409 -3.373306,0.62649 -4.848252,0.20158 z m 6.116267,-3.65496 c 1.058519,-0.92938 1.51011,-2.26768 1.51011,-4.47517 v -1.62295 l -0.595313,0.002 c -0.327422,0.001 -1.366387,0.1271 -2.308833,0.28 -2.842313,0.46115 -3.985975,1.50888 -3.965655,3.63305 0.01852,1.94597 1.101461,2.9388 3.222572,2.95474 l 1.247564,0.009 0.889555,-0.78105 z m 14.077818,3.6746 c -1.036743,-0.30528 -2.104072,-1.32064 -2.844429,-2.70597 l -0.595154,-1.11362 -0.08382,-7.87136 -0.08385,-7.87135 h 2.266659 2.266633 l 0.0026,5.75469 c 0.0026,6.51472 0.240347,8.58978 1.091988,9.49632 1.248146,1.32858 3.572457,0.9404 4.606634,-0.76935 l 0.51644,-0.85562 0.08242,-6.81302 0.08239,-6.81302 h 2.365005 2.364978 v 9.78958 9.78959 h -2.097617 -2.097643 l -0.182086,-1.4575 -0.182113,-1.4575 -1.081934,1.22913 c -0.595048,0.67602 -1.470342,1.39143 -1.945111,1.58979 -0.95676,0.39976 -3.226276,0.44014 -4.452038,0.0792 z m 21.127403,-0.008 c -1.056984,-0.30621 -2.363443,-1.78262 -2.722959,-3.07717 -0.156819,-0.56471 -0.278183,-3.67505 -0.279003,-7.15098 l -0.0015,-6.15156 h -1.5875 -1.5875 v -1.5875 -1.5875 h 1.5875 1.5875 v -2.10816 -2.10816 l 2.196465,-0.66997 c 1.208061,-0.36848 2.279623,-0.66996 2.38125,-0.66996 0.101626,0 0.184785,1.25015 0.184785,2.77812 v 2.77813 h 1.984375 1.984375 v 1.5875 1.5875 H 67.904935 65.92056 v 5.96515 5.96515 l 0.64942,0.64943 c 0.695166,0.69515 1.907381,0.8573 2.807546,0.37554 l 0.511784,-0.27389 v 1.71666 1.71667 l -0.992188,0.27554 c -1.187079,0.32967 -3.5796,0.32434 -4.735618,-0.0105 z m -457.028454,-13.337 v -13.36146 h 1.19063 1.19062 v 5.82083 5.82084 h 5.29167 5.29167 v -5.82084 -5.82083 h 1.05833 1.05833 v 13.36146 13.36146 h -1.05363 -1.05363 l -0.0708,-6.41615 -0.0709,-6.41615 -5.22553,-0.0717 -5.22552,-0.0717 v 6.48788 6.48789 h -1.19062 -1.19063 z m 92.60417,0 v -13.36146 h 5.68854 5.68854 v 1.05833 1.05834 h -4.49791 -4.49792 v 4.7625 4.7625 h 4.23333 4.23334 v 1.05833 1.05833 h -4.23334 -4.23333 v 5.42396 5.42396 h 4.63021 4.63021 v 1.05833 1.05834 h -5.82084 -5.82083 z m 48.94792,-1.05834 v -14.41979 h 1.05833 1.05834 v 14.41979 14.4198 h -1.05834 -1.05833 z m 33.60208,1.05834 v -13.36146 h 1.19063 1.19062 v 12.30312 12.30313 h 4.36563 4.36562 v 1.05833 1.05834 h -5.55625 -5.55625 z m 53.60435,12.89843 c -0.92025,-3.00641 -5.45018,-18.71496 -5.45018,-18.89972 0,-0.13577 0.49486,-0.21024 1.09969,-0.16549 l 1.0997,0.0814 2.27374,8.39891 c 1.25056,4.6194 2.3421,8.39963 2.42564,8.40052 0.0836,7.9e-4 1.21464,-3.80783 2.51355,-8.46381 l 2.36164,-8.46541 1.08305,-10e-4 1.08305,-0.001 -2.33676,8.00365 c -1.28522,4.402 -2.57969,8.80731 -2.87661,9.78958 l -0.53984,1.78594 h -1.29747 -1.29747 l -0.14173,-0.46302 z m 28.1519,-9.32656 v -9.78958 h 1.05834 1.05833 v 9.78958 9.78959 h -1.05833 -1.05834 z m 7.67292,0 v -9.78958 h 0.92604 0.92604 v 1.32292 c 0,0.7276 0.0893,1.32291 0.19844,1.3229 0.10914,0 0.53036,-0.41598 0.93602,-0.9244 2.61678,-3.2796 8.13948,-2.18926 9.1454,1.80557 0.19241,0.76413 0.30348,3.92225 0.30348,8.62871 v 7.42347 h -1.05834 -1.05833 v -7.41684 -7.41683 l -0.36481,-0.87312 c -0.57618,-1.37898 -1.59313,-2.0203 -3.20362,-2.0203 -1.7784,0 -2.91857,0.74697 -3.82421,2.50538 l -0.67715,1.31475 -0.0821,6.95348 -0.0822,6.95348 h -1.0423 -1.04233 z m 45.772918,0 v -9.78958 h 2.086187 2.086186 l 0.185817,1.48731 0.185817,1.4873 0.483605,-0.7952 c 1.178957,-1.93864 3.616511,-2.91211 6.108462,-2.43952 1.755273,0.33288 2.928806,1.22655 3.719645,2.8326 l 0.622406,1.26397 0.08382,7.87135 0.08385,7.87136 h -2.39895 -2.398924 v -6.88767 -6.88766 l -0.374465,-0.89625 c -0.438494,-1.04943 -1.104186,-1.46951 -2.320131,-1.46411 -1.330458,0.006 -2.138786,0.53765 -2.795509,1.839 l -0.595312,1.17964 v 6.55852 6.55853 h -2.38125 -2.38125 z m 30.691667,-3.57187 v -13.36146 h 2.38125 2.38125 v 5.42396 5.42396 h 4.101042 4.101041 v -5.42396 -5.42396 h 2.38125 2.381251 v 13.36146 13.36146 h -2.381251 -2.38125 v -5.95313 -5.95312 h -4.101041 -4.101042 v 5.95312 5.95313 h -2.38125 -2.38125 z m 42.5979172,3.57187 v -9.78958 h 2.2489584 2.2489583 v 9.78958 9.78959 h -2.2489583 -2.2489584 z m 9.52500013,0.41852 c 0,-5.15409 -0.0722577,-9.5594 -0.16060208,-9.78959 l -0.16060209,-0.41851 H 2.2599569 4.5372257 v 1.49246 1.49246 l 1.0886282,-1.23675 c 1.4889692,-1.69156 2.384134,-2.11192 4.4720671,-2.1 2.619587,0.0149 4.324932,1.17436 5.144664,3.4977 l 0.407141,1.15399 v 7.63965 7.63966 h -2.233189 -2.233163 l -0.08292,-7.07761 c -0.08882,-7.58173 -0.19013,-8.19624 -1.4454722,-8.76822 -1.6211285,-0.73863 -3.3157319,-0.0836 -4.2631519,1.64783 l -0.4577292,0.83654 -0.086201,6.68073 -0.086201,6.68073 H 2.5327953 0.30389233 Z m -9.78958343,-16.4252 v -2.24896 h 2.5135417 2.5135417 v 2.24896 2.24896 h -2.5135417 -2.5135417 z m -126.7354189,0.13229 v -1.5875 h 1.32292 1.32291 v 1.5875 1.5875 h -1.32291 -1.32292 z m -158.44605,-4.41594 c 0.60108,-1.13649 1.25758,-2.33424 1.45889,-2.66166 l 0.36602,-0.59531 h 1.18453 c 0.65149,0 1.17918,0.0893 1.17264,0.19843 -0.007,0.10914 -0.75068,1.27 -1.65365,2.57969 l -1.64176,2.38125 -0.98976,0.082 -0.98977,0.082 z M 19.246472,132.05108 c -2.854696,-0.5155 -4.641797,-1.05486 -7.354068,-2.21947 -6.2627931,-2.68917 -10.6141042,-6.73068 -12.75836689,-11.85 -2.28917501,-5.46529 -2.79704271,-14.30843 -1.20372191,-20.959471 1.15474753,-4.820306 3.992933,-8.895803 8.1473412,-11.699166 4.3069136,-2.906284 11.1236656,-5.553544 16.5500316,-6.42715 4.957392,-0.798105 7.80034,-1.240758 11.138826,-1.734344 4.685983,-0.692803 7.288186,-1.390018 9.84303,-2.637271 3.696255,-1.804467 5.153369,-4.123037 4.56184,-7.258751 -0.530781,-2.813672 -2.147041,-4.167762 -6.301846,-5.27966 -4.969299,-1.329876 -9.171676,-1.453153 -13.719784,-0.402471 -3.498982,0.808318 -5.167392,1.862034 -6.679618,4.218657 l -0.848492,1.322239 H 9.9173956 -0.78685248 l 0.18134542,-1.256771 C -0.34507768,64.062718 0.7658813,60.63602 1.6890919,58.789847 3.332763,55.502973 6.4251601,51.929648 9.8288925,49.384185 13.024265,46.994539 18.137841,44.973107 23.657129,43.917794 l 2.443639,-0.467233 7.672916,-5.83e-4 7.672917,-5.82e-4 3.042709,0.472501 c 9.126908,1.417312 15.021613,4.034213 19.337708,8.584806 3.402965,3.587819 4.928341,6.953536 5.55117,12.248457 l 0.325358,2.765927 -0.171159,25.929167 C 69.438248,107.7113 69.282488,122.02856 69.186233,125.2664 l -0.174969,5.88698 H 58.866953 48.722643 v -1.85208 c 0,-1.01865 -0.05543,-1.85209 -0.12319,-1.85209 -0.06773,0 -0.885216,0.41888 -1.816629,0.93084 -3.266202,1.79533 -8.558821,3.21437 -14.255486,3.82214 -3.604974,0.3846 -10.765393,0.30313 -13.280866,-0.15112 z M 33.46989,114.88095 c 4.377187,-0.76331 8.20838,-2.74935 10.620507,-5.5055 1.564614,-1.78776 3.186139,-4.93122 3.87649,-7.51495 l 0.550492,-2.060236 0.13634,-6.019271 c 0.07498,-3.310599 0.05572,-6.019271 -0.04278,-6.019271 -0.09853,0 -0.510143,0.171154 -0.914665,0.380341 -2.376408,1.228889 -8.132445,2.922405 -15.660211,4.607468 -5.136224,1.149728 -8.127868,2.224577 -10.300917,3.700959 l -1.455209,0.988677 -0.9652,1.88995 c -2.792783,5.468423 -1.352682,11.982943 3.196246,14.458783 2.632499,1.43278 6.690043,1.83748 10.95891,1.09305 z M -392.86695,80.918668 c 0,-32.63764 0.0934,-50.727174 0.26661,-51.640538 0.75537,-3.983019 3.67501,-7.348669 7.60922,-8.771625 l 1.51688,-0.548634 6.81302,-0.128409 6.81302,-0.128408 v 20.801167 20.801168 h 22.88646 22.88646 V 40.533597 19.763805 h 11.64167 11.64166 v 55.694792 55.694793 h -11.64166 -11.64167 V 106.41485 81.676305 h -22.88646 -22.88646 v 24.738545 24.73854 h -11.50937 -11.50938 z m 104.95224,50.059182 c -0.29732,-0.29732 -0.19982,-98.945768 0.0998,-101.027586 0.77048,-5.352597 4.73278,-9.216217 10.18229,-9.928703 1.39457,-0.182331 13.66337,-0.250229 36.23959,-0.200558 l 34.13125,0.07509 v 9.525 9.525 l -29.03802,0.06731 -29.03802,0.06731 v 11.905084 11.905086 h 21.69584 21.69583 l -0.005,3.63802 c -0.01,6.698377 -0.80223,9.320168 -3.6341,12.02132 -1.74926,1.668503 -3.07879,2.423862 -5.27172,2.995044 l -1.51887,0.395616 h -16.48087 -16.48087 v 14.154044 14.154033 l 29.03802,0.0673 29.03802,0.0673 v 10.31875 10.31875 l -40.23787,0.067 c -22.13083,0.0368 -40.31762,-0.0128 -40.4151,-0.11024 z m 92.9561,-55.519253 V 19.763805 h 6.16212 6.16212 l 1.57694,0.408215 c 4.36801,1.13072 6.87986,3.5932 8.48992,8.323035 l 0.49536,1.455209 -0.0303,40.150521 -0.0303,40.150525 h 27.08398 27.08398 v 10.45104 10.45104 h -38.49687 -38.49688 z m 88.90201,5.622396 c 0.003,-33.230018 0.0936,-50.372635 0.27734,-51.504816 0.59706,-3.679778 3.07163,-6.929761 6.520019,-8.563111 l 1.79959,-0.852386 7.209896,-0.0817 7.209896,-0.0817 v 20.653052 20.653052 h 22.886459 22.886458 v -20.6375 -20.6375 h 11.641667 11.641667 V 75.458597 130.88881 H -25.625275 -37.266942 V 106.15026 81.411722 H -60.1534 -83.039859 v 24.738538 24.73855 h -11.509375 -11.509376 l 0.003,-49.807817 z"
         id="path9484" />
      <path
         style="fill:#414b56;stroke-width:0.264583"
         d="m -369.73462,182.24633 c -3.49893,-1.58917 -4.33039,-6.67773 -1.52626,-9.34074 1.37423,-1.30506 3.08264,-1.85511 6.22438,-2.00402 l 2.86122,-0.13562 -0.006,-1.48388 c -0.007,-1.88984 -0.74317,-3.55929 -1.81234,-4.11218 -0.44125,-0.22818 -1.45263,-0.41442 -2.25052,-0.41442 h -1.44912 l -1.73902,0.90644 -1.73901,0.90644 -0.004,-0.57571 c -0.002,-0.31664 -0.0703,-0.82421 -0.15189,-1.12794 l -0.14827,-0.55223 1.57661,-0.68376 c 3.17441,-1.3767 6.12673,-1.18439 8.01566,0.52215 1.62793,1.47074 1.79469,2.44468 1.8816,10.98973 l 0.0747,7.34241 -0.83159,-2.3e-4 c -0.93555,-2.4e-4 -1.15214,-0.33952 -1.15405,-1.80779 l -0.001,-0.97055 -0.922,1.00388 c -1.77646,1.93423 -4.62767,2.56982 -6.8994,1.53802 z m 5.34355,-2.28885 c 0.74882,-0.43466 1.26798,-1.00903 1.65364,-1.82949 l 0.56215,-1.19592 v -2.15423 -2.15423 l -2.74279,0.12198 -2.7428,0.12199 -0.86757,0.50801 c -1.26434,0.74034 -1.90616,1.75045 -2.04761,3.22261 -0.3377,3.51453 2.89381,5.26968 6.18498,3.35928 z m 12.66683,2.40796 c -1.25912,-0.46025 -2.32062,-1.6352 -2.73904,-3.03177 -0.19836,-0.66206 -0.30367,-3.68673 -0.30367,-8.72192 v -7.70836 h 1.05834 1.05833 v 7.55116 7.55117 l 0.51522,1.00992 c 1.21558,2.38272 4.88762,2.25931 6.55872,-0.22043 0.99586,-1.47775 1.12514,-2.54988 1.12667,-9.34338 l 0.001,-6.54844 h 1.05834 1.05833 v 9.78958 9.78959 h -0.92604 -0.92604 v -1.32292 c 0,-0.72761 -0.0893,-1.32144 -0.19844,-1.31964 -0.10914,0.002 -0.45501,0.39958 -0.7686,0.88395 -1.08633,1.67798 -4.28717,2.47726 -6.57359,1.64149 z m 17.6203,0.0471 c -0.34977,-0.17976 -0.88556,-0.66274 -1.19063,-1.0733 l -0.55467,-0.74648 -0.0774,-7.78634 -0.0774,-7.78633 h -1.44392 -1.44392 v -1.05834 -1.05833 h 1.45521 1.45521 v -1.95569 -1.95569 l 0.63688,-0.15985 c 0.35028,-0.0879 0.82653,-0.23262 1.05833,-0.32157 l 0.42146,-0.16173 v 2.27726 2.27727 h 1.98437 1.98438 v 1.05833 1.05834 h -1.98438 -1.98437 v 6.99901 c 0,4.70166 0.0996,7.21769 0.30356,7.66526 0.38886,0.85345 1.66579,1.29192 2.80823,0.96427 l 0.85696,-0.24577 v 1.01155 c 0,0.67834 -0.13787,1.06447 -0.41852,1.17216 -0.72312,0.27749 -3.12541,0.16716 -3.78931,-0.17403 z m 12.14362,0.1045 c -1.36089,-0.44901 -2.35307,-1.11004 -3.26467,-2.17503 -1.40993,-1.64719 -1.80958,-3.05682 -1.95766,-6.90494 l -0.12917,-3.35697 0.55228,-1.81829 c 1.1921,-3.9247 3.85372,-5.94846 7.21527,-5.48613 3.21236,0.44181 4.84979,3.0536 5.18082,8.26368 l 0.1555,2.44739 h -5.49879 -5.4988 l 0.16852,1.22948 c 0.4054,2.95773 1.35821,4.62573 3.18383,5.57364 1.2878,0.66867 3.49337,0.5543 5.12617,-0.26581 l 1.38299,-0.69464 v 1.25399 1.25399 l -0.85989,0.34131 c -1.04909,0.41639 -4.84383,0.63942 -5.7564,0.33833 z m 5.41377,-12.27143 c -0.28924,-2.16203 -0.72123,-3.36818 -1.54947,-4.32631 l -0.83469,-0.9656 -1.31552,-0.11383 -1.31551,-0.11382 -0.8335,0.52395 c -0.96096,0.60408 -2.34398,3.24897 -2.6122,4.99561 l -0.17269,1.12448 h 4.39201 4.39201 z m 37.34863,12.06785 c -0.90228,-0.27705 -1.70867,-0.81309 -2.67129,-1.77571 -1.7654,-1.7654 -2.52604,-3.68161 -2.71657,-6.84359 -0.30922,-5.13171 1.37266,-8.85419 4.67743,-10.35252 l 1.20911,-0.54819 2.11667,0.011 c 1.16417,0.006 2.44409,0.14692 2.84427,0.31302 l 0.72761,0.30201 v 1.20397 1.20397 l -0.8599,-0.45086 c -0.53719,-0.28166 -1.50531,-0.45797 -2.57969,-0.46981 l -1.71979,-0.019 -1.24119,0.72962 -1.24118,0.72963 -0.84366,1.71372 -0.84366,1.71371 0.0173,2.45146 c 0.0291,4.12161 1.1373,6.52069 3.57281,7.73435 1.54733,0.77107 3.16997,0.86632 4.59747,0.26987 0.52699,-0.22019 0.98764,-0.36902 1.02367,-0.33073 0.036,0.0383 0.10705,0.54069 0.15782,1.11643 l 0.0923,1.04682 -1.05833,0.32191 c -1.44098,0.43831 -3.70164,0.40775 -5.26118,-0.0711 z m 13.55289,0.0172 c -1.65743,-0.51015 -3.39843,-2.44043 -4.08265,-4.52652 l -0.50489,-1.53931 0.01,-3.70417 0.01,-3.70417 0.61248,-1.54304 c 1.06714,-2.68849 2.80248,-4.15873 5.36153,-4.54248 1.69501,-0.25419 3.90692,0.26361 5.20545,1.21856 2.8163,2.07112 3.99242,8.30182 2.53931,13.45239 -1.20894,4.28511 -4.82908,6.21906 -9.15115,4.88873 z m 4.58391,-2.11948 c 1.06097,-0.54865 1.96579,-1.88482 2.47828,-3.65975 l 0.45202,-1.56549 -0.1134,-2.96256 -0.11339,-2.96256 -0.77811,-1.55737 c -0.98197,-1.96541 -2.08422,-2.748 -3.87048,-2.748 -1.86025,0 -3.13034,0.73595 -3.98727,2.31039 -1.78739,3.28403 -1.50896,9.78218 0.52223,12.18815 1.30587,1.54681 3.51431,1.93754 5.41012,0.95718 z m 21.7848,2.28853 c -3.80217,-0.92563 -5.65747,-4.61822 -5.35986,-10.66773 0.20937,-4.25601 1.43181,-6.90949 3.83085,-8.31542 l 1.23224,-0.72214 1.73588,0.006 c 3.89835,0.0133 5.71792,2.45964 6.02979,8.10665 l 0.14247,2.57969 h -5.46844 -5.46845 l 0.17232,1.38906 c 0.37571,3.02856 1.76288,4.99886 3.97145,5.6409 l 1.36213,0.39598 1.29106,-0.28799 c 0.71008,-0.1584 1.66911,-0.51028 2.13118,-0.78197 l 0.84012,-0.49396 0.18324,1.08463 0.18326,1.08464 -0.45719,0.3343 c -1.02538,0.74978 -4.48372,1.10226 -6.35205,0.64742 z m 5.29964,-12.65103 c -0.24256,-1.99156 -0.91627,-3.4857 -1.97238,-4.37436 l -0.85432,-0.71887 h -1.16956 -1.16956 l -1.04778,0.94661 c -1.05447,0.95265 -1.87284,2.66278 -2.23755,4.67579 l -0.17976,0.99219 h 4.4081 4.4081 z m 34.72099,12.52196 c -2.18587,-0.78015 -3.38586,-2.11451 -4.23447,-4.70865 l -0.5436,-1.66175 -0.0191,-3.175 c -0.022,-3.6581 0.39184,-5.41558 1.74979,-7.43004 0.57878,-0.85858 1.29253,-1.49897 2.17129,-1.9481 l 1.30909,-0.66906 1.9982,0.0104 1.99821,0.0104 1.08338,0.56583 c 2.57182,1.3432 3.81124,3.9179 4.01373,8.3379 0.20648,4.50721 -0.52128,7.16137 -2.54086,9.2666 -1.54557,1.61111 -4.652,2.23431 -6.98562,1.40143 z m 4.59781,-2.15575 c 2.10241,-1.08721 3.2974,-5.58667 2.62857,-9.89736 -0.57553,-3.70935 -2.23327,-5.56208 -4.97672,-5.56208 -1.81658,0 -2.90323,0.773 -3.90537,2.77813 l -0.79342,1.5875 -0.0948,2.96826 -0.0948,2.96826 0.54591,1.79729 c 1.04257,3.43243 3.83684,4.83572 6.69057,3.36 z m 12.26698,2.03462 c -1.25884,-0.57806 -1.82296,-1.16811 -2.37116,-2.48014 l -0.40697,-0.974 v -7.946 -7.946 h 1.05834 1.05833 v 7.54912 7.54913 l 0.37603,0.89997 c 0.69077,1.65324 3.2478,2.33676 5.1152,1.36734 1.06992,-0.55543 2.07059,-2.04283 2.42681,-3.60723 0.14911,-0.65484 0.27402,-4.01836 0.27757,-7.47448 l 0.006,-6.28385 h 1.05834 1.05833 v 9.78958 9.78959 h -0.91693 -0.91693 l -0.17208,-1.29719 -0.17207,-1.29719 -0.82696,0.94185 c -1.60665,1.82987 -4.44139,2.43476 -6.65232,1.4195 z m 31.48315,0.004 c -2.18933,-0.9946 -3.45735,-3.22242 -3.25092,-5.71164 0.31327,-3.77771 3.21491,-5.70118 8.60044,-5.70118 h 2.19337 v -1.22608 c 0,-1.72287 -0.4793,-3.12506 -1.355,-3.96404 l -0.74996,-0.7185 -1.43141,-0.1187 c -1.57517,-0.13063 -2.96629,0.23227 -4.43732,1.15756 l -0.96223,0.60524 -0.16225,-0.81123 c -0.27094,-1.35468 -0.21481,-1.44319 1.35911,-2.14322 1.97704,-0.87932 3.65396,-1.10866 5.38772,-0.73684 1.79026,0.38395 3.06184,1.36259 3.7681,2.90003 l 0.56013,1.21932 0.0937,7.73906 0.0937,7.73907 h -0.94985 -0.94986 v -1.32292 c 0,-0.72761 -0.0439,-1.32292 -0.0975,-1.32292 -0.0536,0 -0.61956,0.52208 -1.25765,1.16017 -1.74832,1.74832 -4.28345,2.24212 -6.45235,1.25681 z m 4.93169,-2.04596 c 0.98274,-0.49697 2.01426,-1.80412 2.33497,-2.95892 0.1503,-0.54118 0.27394,-1.80115 0.27475,-2.79992 l 0.002,-1.81594 -2.71198,0.11048 -2.71198,0.11048 -1.07102,0.55909 c -0.60799,0.31738 -1.28146,0.94985 -1.55778,1.46293 l -0.48675,0.90384 0.12482,1.50516 0.12482,1.50516 0.76156,0.7949 c 1.23691,1.29105 3.12315,1.52994 4.91711,0.62274 z m 49.496691,2.05516 c -3.981401,-1.42333 -5.790091,-4.72503 -5.552121,-10.13514 0.15057,-3.42284 0.83336,-5.34324 2.56008,-7.20026 1.627426,-1.75027 3.075649,-2.37434 5.513176,-2.37577 l 1.91389,-10e-4 1.525693,0.77765 c 2.57982,1.31496 3.87649,3.84827 4.213437,8.23186 l 0.168434,2.19118 h -5.76035 -5.76035 l 0.121603,1.46618 c 0.128958,1.55499 0.640159,2.47366 1.898756,3.41226 l 0.73152,0.54552 2.559447,-0.003 2.55942,-0.003 1.093497,-0.5815 1.093496,-0.5815 0.163274,0.81639 c 0.0898,0.44902 0.163275,1.27315 0.163275,1.83141 v 1.01501 l -1.389063,0.43232 c -0.763984,0.23777 -2.520156,0.48425 -3.902604,0.54771 l -2.513542,0.1154 -1.400968,-0.50084 z m 5.679625,-11.57701 c 0.283977,-0.74001 -0.455851,-3.29152 -1.19388,-4.11743 -2.082535,-2.33056 -5.573844,-0.20018 -5.592498,3.41254 l -0.0058,1.12446 h 3.315599 3.3156 l 0.160999,-0.41958 z m 64.513011,11.74201 c -2.296028,-0.80259 -3.661066,-2.80349 -3.663024,-5.36931 -0.0026,-2.89414 1.038807,-4.56133 3.530732,-5.65466 1.244362,-0.54596 4.495986,-1.09222 6.501448,-1.09222 h 1.171469 v -1.08365 c 0,-1.38931 -0.661008,-2.49723 -1.817238,-3.04589 -1.292833,-0.6135 -3.779758,-0.37696 -5.588502,0.53153 -0.769329,0.3864 -1.435841,0.66546 -1.481191,0.62012 -0.04532,-0.0453 -0.162348,-0.86256 -0.260032,-1.81606 l -0.177615,-1.73364 1.9422,-0.6245 1.942174,-0.6245 2.569607,0.0119 2.569607,0.0119 1.473756,0.72105 c 1.731063,0.84692 2.655014,2.18082 3.055911,4.41181 0.141261,0.78614 0.289401,4.43578 0.329194,8.11031 l 0.07234,6.68096 -2.02221,-2.3e-4 -2.02221,-2.4e-4 -0.160603,-0.41852 c -0.08834,-0.23017 -0.160602,-0.85027 -0.160602,-1.378 v -0.95949 l -1.124479,1.1009 c -0.618463,0.6055 -1.567127,1.28513 -2.108173,1.5103 -1.109769,0.46187 -3.381058,0.50666 -4.572556,0.0902 z m 5.678011,-3.28851 c 1.211607,-0.71572 1.686719,-1.8308 1.814089,-4.2578 l 0.114883,-2.18863 -0.628492,0.002 c -1.230471,0.003 -3.676544,0.50535 -4.604226,0.94555 -0.518292,0.24596 -1.115721,0.78241 -1.3276,1.19212 -0.788352,1.52454 -0.248682,3.80751 1.048888,4.43714 0.858811,0.41672 2.774685,0.34725 3.582458,-0.12991 z m 43.448738,3.30665 c -0.483738,-0.13936 -1.394566,-0.76842 -2.024062,-1.39793 l -1.144561,-1.14457 -0.321046,-1.4345 -0.321019,-1.43451 0.318717,-1.5353 c 0.389758,-1.87747 1.567207,-3.29649 3.381508,-4.07528 1.318498,-0.56598 4.559538,-1.11224 6.599026,-1.11224 h 1.20515 l -0.129487,-1.34749 -0.129487,-1.3475 -0.835977,-0.83532 -0.836004,-0.83531 -2.044753,0.008 -2.044753,0.008 -1.444996,0.70813 c -0.794755,0.38947 -1.492541,0.6606 -1.550643,0.6025 -0.0581,-0.0581 -0.166714,-0.86654 -0.241353,-1.79654 l -0.135731,-1.69091 1.81864,-0.55628 c 2.485575,-0.76027 4.241773,-0.92075 6.368917,-0.58196 2.579185,0.41077 3.839687,1.23235 4.752182,3.0974 l 0.742738,1.5181 0.07429,5.42757 c 0.04085,2.98516 0.102394,6.41417 0.13679,7.62003 l 0.06249,2.19247 -2.116667,-0.0758 -2.116666,-0.0758 -0.132292,-1.27463 -0.132292,-1.27462 -0.926041,0.9762 c -0.509323,0.53692 -1.402292,1.19718 -1.984375,1.46725 -1.151097,0.53409 -3.373306,0.62649 -4.848252,0.20158 z m 6.116267,-3.65496 c 1.058519,-0.92938 1.51011,-2.26768 1.51011,-4.47517 v -1.62295 l -0.595313,0.002 c -0.327422,0.001 -1.366387,0.1271 -2.308833,0.28 -2.842313,0.46115 -3.985975,1.50888 -3.965655,3.63305 0.01852,1.94597 1.101461,2.9388 3.222572,2.95474 l 1.247564,0.009 0.889555,-0.78105 z m 14.077818,3.6746 c -1.036743,-0.30528 -2.104072,-1.32064 -2.844429,-2.70597 l -0.595154,-1.11362 -0.08382,-7.87136 -0.08385,-7.87135 h 2.266659 2.266633 l 0.0026,5.75469 c 0.0026,6.51472 0.240347,8.58978 1.091988,9.49632 1.248146,1.32858 3.572457,0.9404 4.606634,-0.76935 l 0.51644,-0.85562 0.08242,-6.81302 0.08239,-6.81302 h 2.365005 2.364978 v 9.78958 9.78959 h -2.097617 -2.097643 l -0.182086,-1.4575 -0.182113,-1.4575 -1.081934,1.22913 c -0.595048,0.67602 -1.470342,1.39143 -1.945111,1.58979 -0.95676,0.39976 -3.226276,0.44014 -4.452038,0.0792 z m 21.127403,-0.008 c -1.056984,-0.30621 -2.363443,-1.78262 -2.722959,-3.07717 -0.156819,-0.56471 -0.278183,-3.67505 -0.279003,-7.15098 l -0.0015,-6.15156 h -1.5875 -1.5875 v -1.5875 -1.5875 h 1.5875 1.5875 v -2.10816 -2.10816 l 2.196465,-0.66997 c 1.208061,-0.36848 2.279623,-0.66996 2.38125,-0.66996 0.101626,0 0.184785,1.25015 0.184785,2.77812 v 2.77813 h 1.984375 1.984375 v 1.5875 1.5875 H 67.904935 65.92056 v 5.96515 5.96515 l 0.64942,0.64943 c 0.695166,0.69515 1.907381,0.8573 2.807546,0.37554 l 0.511784,-0.27389 v 1.71666 1.71667 l -0.992188,0.27554 c -1.187079,0.32967 -3.5796,0.32434 -4.735618,-0.0105 z m -457.028454,-13.337 v -13.36146 h 1.19063 1.19062 v 5.82083 5.82084 h 5.29167 5.29167 v -5.82084 -5.82083 h 1.05833 1.05833 v 13.36146 13.36146 h -1.05363 -1.05363 l -0.0708,-6.41615 -0.0709,-6.41615 -5.22553,-0.0717 -5.22552,-0.0717 v 6.48788 6.48789 h -1.19062 -1.19063 z m 92.60417,0 v -13.36146 h 5.68854 5.68854 v 1.05833 1.05834 h -4.49791 -4.49792 v 4.7625 4.7625 h 4.23333 4.23334 v 1.05833 1.05833 h -4.23334 -4.23333 v 5.42396 5.42396 h 4.63021 4.63021 v 1.05833 1.05834 h -5.82084 -5.82083 z m 48.94792,-1.05834 v -14.41979 h 1.05833 1.05834 v 14.41979 14.4198 h -1.05834 -1.05833 z m 33.60208,1.05834 v -13.36146 h 1.19063 1.19062 v 12.30312 12.30313 h 4.36563 4.36562 v 1.05833 1.05834 h -5.55625 -5.55625 z m 53.60435,12.89843 c -0.92025,-3.00641 -5.45018,-18.71496 -5.45018,-18.89972 0,-0.13577 0.49486,-0.21024 1.09969,-0.16549 l 1.0997,0.0814 2.27374,8.39891 c 1.25056,4.6194 2.3421,8.39963 2.42564,8.40052 0.0836,7.9e-4 1.21464,-3.80783 2.51355,-8.46381 l 2.36164,-8.46541 1.08305,-10e-4 1.08305,-0.001 -2.33676,8.00365 c -1.28522,4.402 -2.57969,8.80731 -2.87661,9.78958 l -0.53984,1.78594 h -1.29747 -1.29747 l -0.14173,-0.46302 z m 28.1519,-9.32656 v -9.78958 h 1.05834 1.05833 v 9.78958 9.78959 h -1.05833 -1.05834 z m 7.67292,0 v -9.78958 h 0.92604 0.92604 v 1.32292 c 0,0.7276 0.0893,1.32291 0.19844,1.3229 0.10914,0 0.53036,-0.41598 0.93602,-0.9244 2.61678,-3.2796 8.13948,-2.18926 9.1454,1.80557 0.19241,0.76413 0.30348,3.92225 0.30348,8.62871 v 7.42347 h -1.05834 -1.05833 v -7.41684 -7.41683 l -0.36481,-0.87312 c -0.57618,-1.37898 -1.59313,-2.0203 -3.20362,-2.0203 -1.7784,0 -2.91857,0.74697 -3.82421,2.50538 l -0.67715,1.31475 -0.0821,6.95348 -0.0822,6.95348 h -1.0423 -1.04233 z m 45.772918,0 v -9.78958 h 2.086187 2.086186 l 0.185817,1.48731 0.185817,1.4873 0.483605,-0.7952 c 1.178957,-1.93864 3.616511,-2.91211 6.108462,-2.43952 1.755273,0.33288 2.928806,1.22655 3.719645,2.8326 l 0.622406,1.26397 0.08382,7.87135 0.08385,7.87136 h -2.39895 -2.398924 v -6.88767 -6.88766 l -0.374465,-0.89625 c -0.438494,-1.04943 -1.104186,-1.46951 -2.320131,-1.46411 -1.330458,0.006 -2.138786,0.53765 -2.795509,1.839 l -0.595312,1.17964 v 6.55852 6.55853 h -2.38125 -2.38125 z m 30.691667,-3.57187 v -13.36146 h 2.38125 2.38125 v 5.42396 5.42396 h 4.101042 4.101041 v -5.42396 -5.42396 h 2.38125 2.381251 v 13.36146 13.36146 h -2.381251 -2.38125 v -5.95313 -5.95312 h -4.101041 -4.101042 v 5.95312 5.95313 h -2.38125 -2.38125 z m 42.5979172,3.57187 v -9.78958 h 2.2489584 2.2489583 v 9.78958 9.78959 h -2.2489583 -2.2489584 z m 9.52500013,0.41852 c 0,-5.15409 -0.0722577,-9.5594 -0.16060208,-9.78959 l -0.16060209,-0.41851 H 2.2599569 4.5372257 v 1.49246 1.49246 l 1.0886282,-1.23675 c 1.4889692,-1.69156 2.384134,-2.11192 4.4720671,-2.1 2.619587,0.0149 4.324932,1.17436 5.144664,3.4977 l 0.407141,1.15399 v 7.63965 7.63966 h -2.233189 -2.233163 l -0.08292,-7.07761 c -0.08882,-7.58173 -0.19013,-8.19624 -1.4454722,-8.76822 -1.6211285,-0.73863 -3.3157319,-0.0836 -4.2631519,1.64783 l -0.4577292,0.83654 -0.086201,6.68073 -0.086201,6.68073 H 2.5327953 0.30389233 Z m -9.78958343,-16.4252 v -2.24896 h 2.5135417 2.5135417 v 2.24896 2.24896 h -2.5135417 -2.5135417 z m -126.7354189,0.13229 v -1.5875 h 1.32292 1.32291 v 1.5875 1.5875 h -1.32291 -1.32292 z m -158.44605,-4.41594 c 0.60108,-1.13649 1.25758,-2.33424 1.45889,-2.66166 l 0.36602,-0.59531 h 1.18453 c 0.65149,0 1.17918,0.0893 1.17264,0.19843 -0.007,0.10914 -0.75068,1.27 -1.65365,2.57969 l -1.64176,2.38125 -0.98976,0.082 -0.98977,0.082 z M 19.246472,132.05108 c -2.854696,-0.5155 -4.641797,-1.05486 -7.354068,-2.21947 -6.2627931,-2.68917 -10.6141042,-6.73068 -12.75836689,-11.85 -2.28917501,-5.46529 -2.79704271,-14.30843 -1.20372191,-20.959471 1.15474753,-4.820306 3.992933,-8.895803 8.1473412,-11.699166 4.3069136,-2.906284 11.1236656,-5.553544 16.5500316,-6.42715 4.957392,-0.798105 7.80034,-1.240758 11.138826,-1.734344 4.685983,-0.692803 7.288186,-1.390018 9.84303,-2.637271 3.696255,-1.804467 5.153369,-4.123037 4.56184,-7.258751 -0.530781,-2.813672 -2.147041,-4.167762 -6.301846,-5.27966 -4.969299,-1.329876 -9.171676,-1.453153 -13.719784,-0.402471 -3.498982,0.808318 -5.167392,1.862034 -6.679618,4.218657 l -0.848492,1.322239 H 9.9173956 -0.78685248 l 0.18134542,-1.256771 C -0.34507768,64.062718 0.7658813,60.63602 1.6890919,58.789847 3.332763,55.502973 6.4251601,51.929648 9.8288925,49.384185 13.024265,46.994539 18.137841,44.973107 23.657129,43.917794 l 2.443639,-0.467233 7.672916,-5.83e-4 7.672917,-5.82e-4 3.042709,0.472501 c 9.126908,1.417312 15.021613,4.034213 19.337708,8.584806 3.402965,3.587819 4.928341,6.953536 5.55117,12.248457 l 0.325358,2.765927 -0.171159,25.929167 C 69.438248,107.7113 69.282488,122.02856 69.186233,125.2664 l -0.174969,5.88698 H 58.866953 48.722643 v -1.85208 c 0,-1.01865 -0.05543,-1.85209 -0.12319,-1.85209 -0.06773,0 -0.885216,0.41888 -1.816629,0.93084 -3.266202,1.79533 -8.558821,3.21437 -14.255486,3.82214 -3.604974,0.3846 -10.765393,0.30313 -13.280866,-0.15112 z M 33.46989,114.88095 c 4.377187,-0.76331 8.20838,-2.74935 10.620507,-5.5055 1.564614,-1.78776 3.186139,-4.93122 3.87649,-7.51495 l 0.550492,-2.060236 0.13634,-6.019271 c 0.07498,-3.310599 0.05572,-6.019271 -0.04278,-6.019271 -0.09853,0 -0.510143,0.171154 -0.914665,0.380341 -2.376408,1.228889 -8.132445,2.922405 -15.660211,4.607468 -5.136224,1.149728 -8.127868,2.224577 -10.300917,3.700959 l -1.455209,0.988677 -0.9652,1.88995 c -2.792783,5.468423 -1.352682,11.982943 3.196246,14.458783 2.632499,1.43278 6.690043,1.83748 10.95891,1.09305 z M -106.0566,81.080993 c 0.003,-33.230018 0.0936,-50.372635 0.27734,-51.504816 0.59706,-3.679778 3.07163,-6.929761 6.520019,-8.563111 l 1.79959,-0.852386 7.209896,-0.0817 7.209896,-0.0817 v 20.653052 20.653052 h 22.886459 22.886458 v -20.6375 -20.6375 h 11.641667 11.641667 V 75.458597 130.88881 H -25.625275 -37.266942 V 106.15026 81.411722 H -60.1534 -83.039859 v 24.738538 24.73855 h -11.509375 -11.509376 l 0.003,-49.807817 z"
         id="path9482" />
    </g>
  </g>
</svg>
